('C:\\Users\\andres.vargas\\Documents\\Proton_Broswer\\protonbrowser\\V3\\dist\\ProtonBrowser.exe',
 False,
 False,
 False,
 'icon.ico',
 None,
 False,
 False,
 '<?xml version="1.0" encoding="UTF-8" standalone="yes"?><assembly xmlns="urn:schemas-microsoft-com:asm.v1" manifestVersion="1.0"><assemblyIdentity type="win32" name="ProtonBrowser" processorArchitecture="amd64" version="1.0.0.0"/><dependency><dependentAssembly><assemblyIdentity type="win32" name="Microsoft.Windows.Common-Controls" language="*" processorArchitecture="*" version="6.0.0.0" publicKeyToken="6595b64144ccf1df"/><compatibility xmlns="urn:schemas-microsoft-com:compatibility.v1"/></dependentAssembly></dependency><compatibility xmlns="urn:schemas-microsoft-com:compatibility.v1"><application><supportedOS Id="{e2011457-1546-43c5-a5fe-008deee3d3f0}"/><supportedOS Id="{35138b9a-5d96-4fbd-8e2d-a2440225f93a}"/><supportedOS Id="{4a2f28e3-53b9-4441-ba9c-d69d4a4a6e38}"/><supportedOS Id="{1f676c76-80e1-4239-95bb-83d0f6d0da78}"/><supportedOS Id="{8e0f7a12-bfb3-4fe8-b9a5-48fd50a15a9a}"/></application></compatibility></assembly>',
 True,
 'ProtonBrowser.pkg',
 [('PYZ-00.pyz',
   'C:\\Users\\andres.vargas\\Documents\\Proton_Broswer\\protonbrowser\\V3\\build\\ProtonBrowser\\PYZ-00.pyz',
   'PYZ'),
  ('struct',
   'c:\\users\\andres.vargas\\appdata\\local\\programs\\python\\python38\\lib\\struct.pyo',
   'PYMODULE'),
  ('pyimod01_os_path',
   'c:\\users\\andres.vargas\\appdata\\local\\programs\\python\\python38\\lib\\site-packages\\PyInstaller\\loader\\pyimod01_os_path.pyc',
   'PYMODULE'),
  ('pyimod02_archive',
   'c:\\users\\andres.vargas\\appdata\\local\\programs\\python\\python38\\lib\\site-packages\\PyInstaller\\loader\\pyimod02_archive.pyc',
   'PYMODULE'),
  ('pyimod03_importers',
   'c:\\users\\andres.vargas\\appdata\\local\\programs\\python\\python38\\lib\\site-packages\\PyInstaller\\loader\\pyimod03_importers.pyc',
   'PYMODULE'),
  ('pyiboot01_bootstrap',
   'c:\\users\\andres.vargas\\appdata\\local\\programs\\python\\python38\\lib\\site-packages\\PyInstaller\\loader\\pyiboot01_bootstrap.py',
   'PYSOURCE'),
  ('pyi_rth_multiprocessing',
   'C:\\Users\\andres.vargas\\AppData\\Local\\Programs\\Python\\Python38\\Lib\\site-packages\\PyInstaller\\loader\\rthooks\\pyi_rth_multiprocessing.py',
   'PYSOURCE'),
  ('pyi_rth_pyqt5',
   'C:\\Users\\andres.vargas\\AppData\\Local\\Programs\\Python\\Python38\\Lib\\site-packages\\PyInstaller\\loader\\rthooks\\pyi_rth_pyqt5.py',
   'PYSOURCE'),
  ('ProtonBrowser',
   'C:\\Users\\andres.vargas\\Documents\\Proton_Broswer\\protonbrowser\\V3\\ProtonBrowser.py',
   'PYSOURCE'),
  ('python38.dll',
   'c:\\users\\andres.vargas\\appdata\\local\\programs\\python\\python38\\python38.dll',
   'BINARY'),
  ('VCRUNTIME140.dll',
   'c:\\users\\andres.vargas\\appdata\\local\\programs\\python\\python38\\VCRUNTIME140.dll',
   'BINARY'),
  ('PyQt5\\Qt\\plugins\\styles\\qwindowsvistastyle.dll',
   'C:\\users\\andres.vargas\\appdata\\local\\programs\\python\\python38\\lib\\site-packages\\PyQt5\\Qt\\plugins\\styles\\qwindowsvistastyle.dll',
   'BINARY'),
  ('PyQt5\\Qt\\plugins\\platformthemes\\qxdgdesktopportal.dll',
   'C:\\users\\andres.vargas\\appdata\\local\\programs\\python\\python38\\lib\\site-packages\\PyQt5\\Qt\\plugins\\platformthemes\\qxdgdesktopportal.dll',
   'BINARY'),
  ('PyQt5\\Qt\\plugins\\imageformats\\qjpeg.dll',
   'C:\\users\\andres.vargas\\appdata\\local\\programs\\python\\python38\\lib\\site-packages\\PyQt5\\Qt\\plugins\\imageformats\\qjpeg.dll',
   'BINARY'),
  ('PyQt5\\Qt\\plugins\\platforms\\qwindows.dll',
   'C:\\users\\andres.vargas\\appdata\\local\\programs\\python\\python38\\lib\\site-packages\\PyQt5\\Qt\\plugins\\platforms\\qwindows.dll',
   'BINARY'),
  ('libGLESv2.dll',
   'C:\\users\\andres.vargas\\appdata\\local\\programs\\python\\python38\\lib\\site-packages\\PyQt5\\Qt\\bin\\libGLESv2.dll',
   'BINARY'),
  ('PyQt5\\Qt\\plugins\\platforms\\qwebgl.dll',
   'C:\\users\\andres.vargas\\appdata\\local\\programs\\python\\python38\\lib\\site-packages\\PyQt5\\Qt\\plugins\\platforms\\qwebgl.dll',
   'BINARY'),
  ('PyQt5\\Qt\\plugins\\imageformats\\qwbmp.dll',
   'C:\\users\\andres.vargas\\appdata\\local\\programs\\python\\python38\\lib\\site-packages\\PyQt5\\Qt\\plugins\\imageformats\\qwbmp.dll',
   'BINARY'),
  ('libEGL.dll',
   'C:\\users\\andres.vargas\\appdata\\local\\programs\\python\\python38\\lib\\site-packages\\PyQt5\\Qt\\bin\\libEGL.dll',
   'BINARY'),
  ('PyQt5\\Qt\\plugins\\imageformats\\qsvg.dll',
   'C:\\users\\andres.vargas\\appdata\\local\\programs\\python\\python38\\lib\\site-packages\\PyQt5\\Qt\\plugins\\imageformats\\qsvg.dll',
   'BINARY'),
  ('PyQt5\\Qt\\plugins\\imageformats\\qtga.dll',
   'C:\\users\\andres.vargas\\appdata\\local\\programs\\python\\python38\\lib\\site-packages\\PyQt5\\Qt\\plugins\\imageformats\\qtga.dll',
   'BINARY'),
  ('PyQt5\\Qt\\plugins\\imageformats\\qico.dll',
   'C:\\users\\andres.vargas\\appdata\\local\\programs\\python\\python38\\lib\\site-packages\\PyQt5\\Qt\\plugins\\imageformats\\qico.dll',
   'BINARY'),
  ('d3dcompiler_47.dll',
   'C:\\users\\andres.vargas\\appdata\\local\\programs\\python\\python38\\lib\\site-packages\\PyQt5\\Qt\\bin\\d3dcompiler_47.dll',
   'BINARY'),
  ('PyQt5\\Qt\\plugins\\imageformats\\qicns.dll',
   'C:\\users\\andres.vargas\\appdata\\local\\programs\\python\\python38\\lib\\site-packages\\PyQt5\\Qt\\plugins\\imageformats\\qicns.dll',
   'BINARY'),
  ('PyQt5\\Qt\\plugins\\imageformats\\qtiff.dll',
   'C:\\users\\andres.vargas\\appdata\\local\\programs\\python\\python38\\lib\\site-packages\\PyQt5\\Qt\\plugins\\imageformats\\qtiff.dll',
   'BINARY'),
  ('opengl32sw.dll',
   'C:\\users\\andres.vargas\\appdata\\local\\programs\\python\\python38\\lib\\site-packages\\PyQt5\\Qt\\bin\\opengl32sw.dll',
   'BINARY'),
  ('PyQt5\\Qt\\plugins\\imageformats\\qwebp.dll',
   'C:\\users\\andres.vargas\\appdata\\local\\programs\\python\\python38\\lib\\site-packages\\PyQt5\\Qt\\plugins\\imageformats\\qwebp.dll',
   'BINARY'),
  ('PyQt5\\Qt\\plugins\\platforms\\qminimal.dll',
   'C:\\users\\andres.vargas\\appdata\\local\\programs\\python\\python38\\lib\\site-packages\\PyQt5\\Qt\\plugins\\platforms\\qminimal.dll',
   'BINARY'),
  ('PyQt5\\Qt\\plugins\\imageformats\\qgif.dll',
   'C:\\users\\andres.vargas\\appdata\\local\\programs\\python\\python38\\lib\\site-packages\\PyQt5\\Qt\\plugins\\imageformats\\qgif.dll',
   'BINARY'),
  ('PyQt5\\Qt\\plugins\\platforms\\qoffscreen.dll',
   'C:\\users\\andres.vargas\\appdata\\local\\programs\\python\\python38\\lib\\site-packages\\PyQt5\\Qt\\plugins\\platforms\\qoffscreen.dll',
   'BINARY'),
  ('PyQt5\\Qt\\plugins\\iconengines\\qsvgicon.dll',
   'C:\\users\\andres.vargas\\appdata\\local\\programs\\python\\python38\\lib\\site-packages\\PyQt5\\Qt\\plugins\\iconengines\\qsvgicon.dll',
   'BINARY'),
  ('select',
   'c:\\users\\andres.vargas\\appdata\\local\\programs\\python\\python38\\DLLs\\select.pyd',
   'EXTENSION'),
  ('_overlapped',
   'c:\\users\\andres.vargas\\appdata\\local\\programs\\python\\python38\\DLLs\\_overlapped.pyd',
   'EXTENSION'),
  ('_ssl',
   'c:\\users\\andres.vargas\\appdata\\local\\programs\\python\\python38\\DLLs\\_ssl.pyd',
   'EXTENSION'),
  ('_asyncio',
   'c:\\users\\andres.vargas\\appdata\\local\\programs\\python\\python38\\DLLs\\_asyncio.pyd',
   'EXTENSION'),
  ('_queue',
   'c:\\users\\andres.vargas\\appdata\\local\\programs\\python\\python38\\DLLs\\_queue.pyd',
   'EXTENSION'),
  ('_hashlib',
   'c:\\users\\andres.vargas\\appdata\\local\\programs\\python\\python38\\DLLs\\_hashlib.pyd',
   'EXTENSION'),
  ('_lzma',
   'c:\\users\\andres.vargas\\appdata\\local\\programs\\python\\python38\\DLLs\\_lzma.pyd',
   'EXTENSION'),
  ('_bz2',
   'c:\\users\\andres.vargas\\appdata\\local\\programs\\python\\python38\\DLLs\\_bz2.pyd',
   'EXTENSION'),
  ('pyexpat',
   'c:\\users\\andres.vargas\\appdata\\local\\programs\\python\\python38\\DLLs\\pyexpat.pyd',
   'EXTENSION'),
  ('unicodedata',
   'c:\\users\\andres.vargas\\appdata\\local\\programs\\python\\python38\\DLLs\\unicodedata.pyd',
   'EXTENSION'),
  ('_decimal',
   'c:\\users\\andres.vargas\\appdata\\local\\programs\\python\\python38\\DLLs\\_decimal.pyd',
   'EXTENSION'),
  ('_ctypes',
   'c:\\users\\andres.vargas\\appdata\\local\\programs\\python\\python38\\DLLs\\_ctypes.pyd',
   'EXTENSION'),
  ('_multiprocessing',
   'c:\\users\\andres.vargas\\appdata\\local\\programs\\python\\python38\\DLLs\\_multiprocessing.pyd',
   'EXTENSION'),
  ('_elementtree',
   'c:\\users\\andres.vargas\\appdata\\local\\programs\\python\\python38\\DLLs\\_elementtree.pyd',
   'EXTENSION'),
  ('psutil._psutil_windows',
   'c:\\users\\andres.vargas\\appdata\\local\\programs\\python\\python38\\lib\\site-packages\\psutil\\_psutil_windows.cp38-win_amd64.pyd',
   'EXTENSION'),
  ('PyQt5.QtWidgets',
   'c:\\users\\andres.vargas\\appdata\\local\\programs\\python\\python38\\lib\\site-packages\\PyQt5\\QtWidgets.pyd',
   'EXTENSION'),
  ('PyQt5.QtGui',
   'c:\\users\\andres.vargas\\appdata\\local\\programs\\python\\python38\\lib\\site-packages\\PyQt5\\QtGui.pyd',
   'EXTENSION'),
  ('PyQt5.QtCore',
   'c:\\users\\andres.vargas\\appdata\\local\\programs\\python\\python38\\lib\\site-packages\\PyQt5\\QtCore.pyd',
   'EXTENSION'),
  ('PyQt5.sip',
   'c:\\users\\andres.vargas\\appdata\\local\\programs\\python\\python38\\lib\\site-packages\\PyQt5\\sip.cp38-win_amd64.pyd',
   'EXTENSION'),
  ('_socket',
   'c:\\users\\andres.vargas\\appdata\\local\\programs\\python\\python38\\DLLs\\_socket.pyd',
   'EXTENSION'),
  ('Qt5Core.dll',
   'c:\\users\\andres.vargas\\appdata\\local\\programs\\python\\python38\\lib\\site-packages\\PyQt5\\Qt\\bin\\Qt5Core.dll',
   'BINARY'),
  ('Qt5Widgets.dll',
   'c:\\users\\andres.vargas\\appdata\\local\\programs\\python\\python38\\lib\\site-packages\\PyQt5\\Qt\\bin\\Qt5Widgets.dll',
   'BINARY'),
  ('Qt5Gui.dll',
   'c:\\users\\andres.vargas\\appdata\\local\\programs\\python\\python38\\lib\\site-packages\\PyQt5\\Qt\\bin\\Qt5Gui.dll',
   'BINARY'),
  ('Qt5DBus.dll',
   'c:\\users\\andres.vargas\\appdata\\local\\programs\\python\\python38\\lib\\site-packages\\PyQt5\\Qt\\bin\\Qt5DBus.dll',
   'BINARY'),
  ('MSVCP140.dll',
   'C:\\users\\andres.vargas\\appdata\\local\\programs\\python\\python38\\lib\\site-packages\\PyQt5\\Qt\\bin\\MSVCP140.dll',
   'BINARY'),
  ('Qt5WebSockets.dll',
   'c:\\users\\andres.vargas\\appdata\\local\\programs\\python\\python38\\lib\\site-packages\\PyQt5\\Qt\\bin\\Qt5WebSockets.dll',
   'BINARY'),
  ('Qt5Quick.dll',
   'c:\\users\\andres.vargas\\appdata\\local\\programs\\python\\python38\\lib\\site-packages\\PyQt5\\Qt\\bin\\Qt5Quick.dll',
   'BINARY'),
  ('Qt5Network.dll',
   'c:\\users\\andres.vargas\\appdata\\local\\programs\\python\\python38\\lib\\site-packages\\PyQt5\\Qt\\bin\\Qt5Network.dll',
   'BINARY'),
  ('Qt5Svg.dll',
   'c:\\users\\andres.vargas\\appdata\\local\\programs\\python\\python38\\lib\\site-packages\\PyQt5\\Qt\\bin\\Qt5Svg.dll',
   'BINARY'),
  ('libssl-1_1.dll',
   'c:\\users\\andres.vargas\\appdata\\local\\programs\\python\\python38\\DLLs\\libssl-1_1.dll',
   'BINARY'),
  ('libcrypto-1_1.dll',
   'c:\\users\\andres.vargas\\appdata\\local\\programs\\python\\python38\\DLLs\\libcrypto-1_1.dll',
   'BINARY'),
  ('libffi-7.dll',
   'c:\\users\\andres.vargas\\appdata\\local\\programs\\python\\python38\\DLLs\\libffi-7.dll',
   'BINARY'),
  ('python3.dll',
   'c:\\users\\andres.vargas\\appdata\\local\\programs\\python\\python38\\python3.dll',
   'BINARY'),
  ('Qt5Qml.dll',
   'c:\\users\\andres.vargas\\appdata\\local\\programs\\python\\python38\\lib\\site-packages\\PyQt5\\Qt\\bin\\Qt5Qml.dll',
   'BINARY'),
  ('base_library.zip',
   'C:\\Users\\andres.vargas\\Documents\\Proton_Broswer\\protonbrowser\\V3\\build\\ProtonBrowser\\base_library.zip',
   'DATA'),
  ('PyQt5\\Qt\\translations\\qtbase_es.qm',
   'C:\\users\\andres.vargas\\appdata\\local\\programs\\python\\python38\\lib\\site-packages\\PyQt5\\Qt\\translations\\qtbase_es.qm',
   'DATA'),
  ('PyQt5\\Qt\\translations\\qtbase_lv.qm',
   'C:\\users\\andres.vargas\\appdata\\local\\programs\\python\\python38\\lib\\site-packages\\PyQt5\\Qt\\translations\\qtbase_lv.qm',
   'DATA'),
  ('PyQt5\\uic\\widget-plugins\\__pycache__\\qtprintsupport.cpython-38.pyc',
   'c:\\users\\andres.vargas\\appdata\\local\\programs\\python\\python38\\lib\\site-packages\\PyQt5\\uic\\widget-plugins\\__pycache__\\qtprintsupport.cpython-38.pyc',
   'DATA'),
  ('PyQt5\\Qt\\translations\\qtbase_pl.qm',
   'C:\\users\\andres.vargas\\appdata\\local\\programs\\python\\python38\\lib\\site-packages\\PyQt5\\Qt\\translations\\qtbase_pl.qm',
   'DATA'),
  ('PyQt5\\uic\\widget-plugins\\__pycache__\\qtwebenginewidgets.cpython-38.pyc',
   'c:\\users\\andres.vargas\\appdata\\local\\programs\\python\\python38\\lib\\site-packages\\PyQt5\\uic\\widget-plugins\\__pycache__\\qtwebenginewidgets.cpython-38.pyc',
   'DATA'),
  ('PyQt5\\uic\\widget-plugins\\__pycache__\\qtwebkit.cpython-38.pyc',
   'c:\\users\\andres.vargas\\appdata\\local\\programs\\python\\python38\\lib\\site-packages\\PyQt5\\uic\\widget-plugins\\__pycache__\\qtwebkit.cpython-38.pyc',
   'DATA'),
  ('PyQt5\\Qt\\translations\\qtbase_uk.qm',
   'C:\\users\\andres.vargas\\appdata\\local\\programs\\python\\python38\\lib\\site-packages\\PyQt5\\Qt\\translations\\qtbase_uk.qm',
   'DATA'),
  ('PyQt5\\uic\\widget-plugins\\qaxcontainer.py',
   'c:\\users\\andres.vargas\\appdata\\local\\programs\\python\\python38\\lib\\site-packages\\PyQt5\\uic\\widget-plugins\\qaxcontainer.py',
   'DATA'),
  ('PyQt5\\Qt\\translations\\qtbase_ru.qm',
   'C:\\users\\andres.vargas\\appdata\\local\\programs\\python\\python38\\lib\\site-packages\\PyQt5\\Qt\\translations\\qtbase_ru.qm',
   'DATA'),
  ('PyQt5\\Qt\\translations\\qtbase_da.qm',
   'C:\\users\\andres.vargas\\appdata\\local\\programs\\python\\python38\\lib\\site-packages\\PyQt5\\Qt\\translations\\qtbase_da.qm',
   'DATA'),
  ('PyQt5\\uic\\widget-plugins\\__pycache__\\qscintilla.cpython-38.pyc',
   'c:\\users\\andres.vargas\\appdata\\local\\programs\\python\\python38\\lib\\site-packages\\PyQt5\\uic\\widget-plugins\\__pycache__\\qscintilla.cpython-38.pyc',
   'DATA'),
  ('PyQt5\\uic\\widget-plugins\\__pycache__\\qtquickwidgets.cpython-38.pyc',
   'c:\\users\\andres.vargas\\appdata\\local\\programs\\python\\python38\\lib\\site-packages\\PyQt5\\uic\\widget-plugins\\__pycache__\\qtquickwidgets.cpython-38.pyc',
   'DATA'),
  ('PyQt5\\Qt\\translations\\qtbase_cs.qm',
   'C:\\users\\andres.vargas\\appdata\\local\\programs\\python\\python38\\lib\\site-packages\\PyQt5\\Qt\\translations\\qtbase_cs.qm',
   'DATA'),
  ('PyQt5\\Qt\\translations\\qtbase_ja.qm',
   'C:\\users\\andres.vargas\\appdata\\local\\programs\\python\\python38\\lib\\site-packages\\PyQt5\\Qt\\translations\\qtbase_ja.qm',
   'DATA'),
  ('PyQt5\\uic\\widget-plugins\\__pycache__\\qtcharts.cpython-38.pyc',
   'c:\\users\\andres.vargas\\appdata\\local\\programs\\python\\python38\\lib\\site-packages\\PyQt5\\uic\\widget-plugins\\__pycache__\\qtcharts.cpython-38.pyc',
   'DATA'),
  ('PyQt5\\Qt\\translations\\qtbase_ko.qm',
   'C:\\users\\andres.vargas\\appdata\\local\\programs\\python\\python38\\lib\\site-packages\\PyQt5\\Qt\\translations\\qtbase_ko.qm',
   'DATA'),
  ('PyQt5\\uic\\widget-plugins\\__pycache__\\qaxcontainer.cpython-38.pyc',
   'c:\\users\\andres.vargas\\appdata\\local\\programs\\python\\python38\\lib\\site-packages\\PyQt5\\uic\\widget-plugins\\__pycache__\\qaxcontainer.cpython-38.pyc',
   'DATA'),
  ('PyQt5\\Qt\\translations\\qtbase_fr.qm',
   'C:\\users\\andres.vargas\\appdata\\local\\programs\\python\\python38\\lib\\site-packages\\PyQt5\\Qt\\translations\\qtbase_fr.qm',
   'DATA'),
  ('PyQt5\\Qt\\translations\\qtbase_de.qm',
   'C:\\users\\andres.vargas\\appdata\\local\\programs\\python\\python38\\lib\\site-packages\\PyQt5\\Qt\\translations\\qtbase_de.qm',
   'DATA'),
  ('PyQt5\\Qt\\translations\\qtbase_ar.qm',
   'C:\\users\\andres.vargas\\appdata\\local\\programs\\python\\python38\\lib\\site-packages\\PyQt5\\Qt\\translations\\qtbase_ar.qm',
   'DATA'),
  ('PyQt5\\uic\\widget-plugins\\qtwebkit.py',
   'c:\\users\\andres.vargas\\appdata\\local\\programs\\python\\python38\\lib\\site-packages\\PyQt5\\uic\\widget-plugins\\qtwebkit.py',
   'DATA'),
  ('PyQt5\\Qt\\translations\\qtbase_ca.qm',
   'C:\\users\\andres.vargas\\appdata\\local\\programs\\python\\python38\\lib\\site-packages\\PyQt5\\Qt\\translations\\qtbase_ca.qm',
   'DATA'),
  ('PyQt5\\Qt\\translations\\qtbase_sk.qm',
   'C:\\users\\andres.vargas\\appdata\\local\\programs\\python\\python38\\lib\\site-packages\\PyQt5\\Qt\\translations\\qtbase_sk.qm',
   'DATA'),
  ('PyQt5\\Qt\\translations\\qtbase_en.qm',
   'C:\\users\\andres.vargas\\appdata\\local\\programs\\python\\python38\\lib\\site-packages\\PyQt5\\Qt\\translations\\qtbase_en.qm',
   'DATA'),
  ('PyQt5\\Qt\\translations\\qtbase_gd.qm',
   'C:\\users\\andres.vargas\\appdata\\local\\programs\\python\\python38\\lib\\site-packages\\PyQt5\\Qt\\translations\\qtbase_gd.qm',
   'DATA'),
  ('PyQt5\\uic\\widget-plugins\\qtwebenginewidgets.py',
   'c:\\users\\andres.vargas\\appdata\\local\\programs\\python\\python38\\lib\\site-packages\\PyQt5\\uic\\widget-plugins\\qtwebenginewidgets.py',
   'DATA'),
  ('PyQt5\\uic\\widget-plugins\\qscintilla.py',
   'c:\\users\\andres.vargas\\appdata\\local\\programs\\python\\python38\\lib\\site-packages\\PyQt5\\uic\\widget-plugins\\qscintilla.py',
   'DATA'),
  ('PyQt5\\Qt\\translations\\qtbase_he.qm',
   'C:\\users\\andres.vargas\\appdata\\local\\programs\\python\\python38\\lib\\site-packages\\PyQt5\\Qt\\translations\\qtbase_he.qm',
   'DATA'),
  ('PyQt5\\Qt\\translations\\qtbase_zh_TW.qm',
   'C:\\users\\andres.vargas\\appdata\\local\\programs\\python\\python38\\lib\\site-packages\\PyQt5\\Qt\\translations\\qtbase_zh_TW.qm',
   'DATA'),
  ('PyQt5\\Qt\\translations\\qtbase_fi.qm',
   'C:\\users\\andres.vargas\\appdata\\local\\programs\\python\\python38\\lib\\site-packages\\PyQt5\\Qt\\translations\\qtbase_fi.qm',
   'DATA'),
  ('PyQt5\\uic\\widget-plugins\\qtcharts.py',
   'c:\\users\\andres.vargas\\appdata\\local\\programs\\python\\python38\\lib\\site-packages\\PyQt5\\uic\\widget-plugins\\qtcharts.py',
   'DATA'),
  ('PyQt5\\uic\\widget-plugins\\qtprintsupport.py',
   'c:\\users\\andres.vargas\\appdata\\local\\programs\\python\\python38\\lib\\site-packages\\PyQt5\\uic\\widget-plugins\\qtprintsupport.py',
   'DATA'),
  ('PyQt5\\Qt\\translations\\qtbase_bg.qm',
   'C:\\users\\andres.vargas\\appdata\\local\\programs\\python\\python38\\lib\\site-packages\\PyQt5\\Qt\\translations\\qtbase_bg.qm',
   'DATA'),
  ('PyQt5\\Qt\\translations\\qtbase_it.qm',
   'C:\\users\\andres.vargas\\appdata\\local\\programs\\python\\python38\\lib\\site-packages\\PyQt5\\Qt\\translations\\qtbase_it.qm',
   'DATA'),
  ('PyQt5\\Qt\\translations\\qtbase_hu.qm',
   'C:\\users\\andres.vargas\\appdata\\local\\programs\\python\\python38\\lib\\site-packages\\PyQt5\\Qt\\translations\\qtbase_hu.qm',
   'DATA'),
  ('PyQt5\\uic\\widget-plugins\\qtquickwidgets.py',
   'c:\\users\\andres.vargas\\appdata\\local\\programs\\python\\python38\\lib\\site-packages\\PyQt5\\uic\\widget-plugins\\qtquickwidgets.py',
   'DATA'),
  ('ProtonBrowser.exe.manifest',
   'C:\\Users\\andres.vargas\\Documents\\Proton_Broswer\\protonbrowser\\V3\\build\\ProtonBrowser\\ProtonBrowser.exe.manifest',
   'BINARY'),
  ('pyi-windows-manifest-filename ProtonBrowser.exe.manifest', '', 'OPTION')],
 [],
 False,
 False,
 1586788993,
 [('runw.exe',
   'c:\\users\\andres.vargas\\appdata\\local\\programs\\python\\python38\\lib\\site-packages\\PyInstaller\\bootloader\\Windows-64bit\\runw.exe',
   'EXECUTABLE')])
