(['/home/izi/Desktop/V3-linux/ProtonBrowser.py'],
 ['/home/izi/Desktop/V3-linux', '/home/izi/Desktop/V3-linux'],
 ['codecs'],
 [],
 [],
 [],
 False,
 False,
 '3.6.9 (default, Nov  7 2019, 10:44:02) \n[GCC 8.3.0]',
 [('pyi_rth_pyqt5',
   '/home/izi/.local/lib/python3.6/site-packages/PyInstaller/loader/rthooks/pyi_rth_pyqt5.py',
   'PYSOURCE'),
  ('ProtonBrowser', '/home/izi/Desktop/V3-linux/ProtonBrowser.py', 'PYSOURCE')],
 [('posixpath', '/usr/lib/python3.6/posixpath.py', 'PYMODULE'),
  ('_strptime', '/usr/lib/python3.6/_strptime.py', 'PYMODULE'),
  ('datetime', '/usr/lib/python3.6/datetime.py', 'PYMODULE'),
  ('_compat_pickle', '/usr/lib/python3.6/_compat_pickle.py', 'PYMODULE'),
  ('pickle', '/usr/lib/python3.6/pickle.py', 'PYMODULE'),
  ('tracemalloc', '/usr/lib/python3.6/tracemalloc.py', 'PYMODULE'),
  ('__future__', '/usr/lib/python3.6/__future__.py', 'PYMODULE'),
  ('argparse', '/usr/lib/python3.6/argparse.py', 'PYMODULE'),
  ('difflib', '/usr/lib/python3.6/difflib.py', 'PYMODULE'),
  ('ast', '/usr/lib/python3.6/ast.py', 'PYMODULE'),
  ('inspect', '/usr/lib/python3.6/inspect.py', 'PYMODULE'),
  ('cmd', '/usr/lib/python3.6/cmd.py', 'PYMODULE'),
  ('bdb', '/usr/lib/python3.6/bdb.py', 'PYMODULE'),
  ('opcode', '/usr/lib/python3.6/opcode.py', 'PYMODULE'),
  ('dis', '/usr/lib/python3.6/dis.py', 'PYMODULE'),
  ('codeop', '/usr/lib/python3.6/codeop.py', 'PYMODULE'),
  ('code', '/usr/lib/python3.6/code.py', 'PYMODULE'),
  ('glob', '/usr/lib/python3.6/glob.py', 'PYMODULE'),
  ('shlex', '/usr/lib/python3.6/shlex.py', 'PYMODULE'),
  ('importlib._bootstrap',
   '/usr/lib/python3.6/importlib/_bootstrap.py',
   'PYMODULE'),
  ('importlib._bootstrap_external',
   '/usr/lib/python3.6/importlib/_bootstrap_external.py',
   'PYMODULE'),
  ('importlib.machinery',
   '/usr/lib/python3.6/importlib/machinery.py',
   'PYMODULE'),
  ('importlib.util', '/usr/lib/python3.6/importlib/util.py', 'PYMODULE'),
  ('importlib.abc', '/usr/lib/python3.6/importlib/abc.py', 'PYMODULE'),
  ('importlib', '/usr/lib/python3.6/importlib/__init__.py', 'PYMODULE'),
  ('pkgutil', '/usr/lib/python3.6/pkgutil.py', 'PYMODULE'),
  ('xml', '/usr/lib/python3.6/xml/__init__.py', 'PYMODULE'),
  ('xml.sax.expatreader',
   '/usr/lib/python3.6/xml/sax/expatreader.py',
   'PYMODULE'),
  ('xml.sax.saxutils', '/usr/lib/python3.6/xml/sax/saxutils.py', 'PYMODULE'),
  ('urllib.request', '/usr/lib/python3.6/urllib/request.py', 'PYMODULE'),
  ('getpass', '/usr/lib/python3.6/getpass.py', 'PYMODULE'),
  ('nturl2path', '/usr/lib/python3.6/nturl2path.py', 'PYMODULE'),
  ('ftplib', '/usr/lib/python3.6/ftplib.py', 'PYMODULE'),
  ('netrc', '/usr/lib/python3.6/netrc.py', 'PYMODULE'),
  ('http.cookiejar', '/usr/lib/python3.6/http/cookiejar.py', 'PYMODULE'),
  ('urllib.response', '/usr/lib/python3.6/urllib/response.py', 'PYMODULE'),
  ('urllib.error', '/usr/lib/python3.6/urllib/error.py', 'PYMODULE'),
  ('xml.sax', '/usr/lib/python3.6/xml/sax/__init__.py', 'PYMODULE'),
  ('xml.sax.handler', '/usr/lib/python3.6/xml/sax/handler.py', 'PYMODULE'),
  ('xml.sax._exceptions',
   '/usr/lib/python3.6/xml/sax/_exceptions.py',
   'PYMODULE'),
  ('xml.sax.xmlreader', '/usr/lib/python3.6/xml/sax/xmlreader.py', 'PYMODULE'),
  ('xml.parsers', '/usr/lib/python3.6/xml/parsers/__init__.py', 'PYMODULE'),
  ('xml.parsers.expat', '/usr/lib/python3.6/xml/parsers/expat.py', 'PYMODULE'),
  ('plistlib', '/usr/lib/python3.6/plistlib.py', 'PYMODULE'),
  ('platform', '/usr/lib/python3.6/platform.py', 'PYMODULE'),
  ('token', '/usr/lib/python3.6/token.py', 'PYMODULE'),
  ('tokenize', '/usr/lib/python3.6/tokenize.py', 'PYMODULE'),
  ('urllib.parse', '/usr/lib/python3.6/urllib/parse.py', 'PYMODULE'),
  ('tempfile', '/usr/lib/python3.6/tempfile.py', 'PYMODULE'),
  ('tty', '/usr/lib/python3.6/tty.py', 'PYMODULE'),
  ('pydoc_data', '/usr/lib/python3.6/pydoc_data/__init__.py', 'PYMODULE'),
  ('pydoc_data.topics', '/usr/lib/python3.6/pydoc_data/topics.py', 'PYMODULE'),
  ('textwrap', '/usr/lib/python3.6/textwrap.py', 'PYMODULE'),
  ('html.entities', '/usr/lib/python3.6/html/entities.py', 'PYMODULE'),
  ('html', '/usr/lib/python3.6/html/__init__.py', 'PYMODULE'),
  ('ipaddress', '/usr/lib/python3.6/ipaddress.py', 'PYMODULE'),
  ('ssl', '/usr/lib/python3.6/ssl.py', 'PYMODULE'),
  ('http.client', '/usr/lib/python3.6/http/client.py', 'PYMODULE'),
  ('mimetypes', '/usr/lib/python3.6/mimetypes.py', 'PYMODULE'),
  ('socketserver', '/usr/lib/python3.6/socketserver.py', 'PYMODULE'),
  ('http', '/usr/lib/python3.6/http/__init__.py', 'PYMODULE'),
  ('http.server', '/usr/lib/python3.6/http/server.py', 'PYMODULE'),
  ('optparse', '/usr/lib/python3.6/optparse.py', 'PYMODULE'),
  ('uu', '/usr/lib/python3.6/uu.py', 'PYMODULE'),
  ('email.feedparser', '/usr/lib/python3.6/email/feedparser.py', 'PYMODULE'),
  ('email.parser', '/usr/lib/python3.6/email/parser.py', 'PYMODULE'),
  ('email', '/usr/lib/python3.6/email/__init__.py', 'PYMODULE'),
  ('calendar', '/usr/lib/python3.6/calendar.py', 'PYMODULE'),
  ('email._parseaddr', '/usr/lib/python3.6/email/_parseaddr.py', 'PYMODULE'),
  ('email.utils', '/usr/lib/python3.6/email/utils.py', 'PYMODULE'),
  ('email.errors', '/usr/lib/python3.6/email/errors.py', 'PYMODULE'),
  ('email.header', '/usr/lib/python3.6/email/header.py', 'PYMODULE'),
  ('email._policybase', '/usr/lib/python3.6/email/_policybase.py', 'PYMODULE'),
  ('email.base64mime', '/usr/lib/python3.6/email/base64mime.py', 'PYMODULE'),
  ('email.encoders', '/usr/lib/python3.6/email/encoders.py', 'PYMODULE'),
  ('email.charset', '/usr/lib/python3.6/email/charset.py', 'PYMODULE'),
  ('email._encoded_words',
   '/usr/lib/python3.6/email/_encoded_words.py',
   'PYMODULE'),
  ('hashlib', '/usr/lib/python3.6/hashlib.py', 'PYMODULE'),
  ('bisect', '/usr/lib/python3.6/bisect.py', 'PYMODULE'),
  ('random', '/usr/lib/python3.6/random.py', 'PYMODULE'),
  ('email.generator', '/usr/lib/python3.6/email/generator.py', 'PYMODULE'),
  ('email.iterators', '/usr/lib/python3.6/email/iterators.py', 'PYMODULE'),
  ('urllib', '/usr/lib/python3.6/urllib/__init__.py', 'PYMODULE'),
  ('email._header_value_parser',
   '/usr/lib/python3.6/email/_header_value_parser.py',
   'PYMODULE'),
  ('email.headerregistry',
   '/usr/lib/python3.6/email/headerregistry.py',
   'PYMODULE'),
  ('email.quoprimime', '/usr/lib/python3.6/email/quoprimime.py', 'PYMODULE'),
  ('email.contentmanager',
   '/usr/lib/python3.6/email/contentmanager.py',
   'PYMODULE'),
  ('email.policy', '/usr/lib/python3.6/email/policy.py', 'PYMODULE'),
  ('email.message', '/usr/lib/python3.6/email/message.py', 'PYMODULE'),
  ('lzma', '/usr/lib/python3.6/lzma.py', 'PYMODULE'),
  ('gzip', '/usr/lib/python3.6/gzip.py', 'PYMODULE'),
  ('tarfile', '/usr/lib/python3.6/tarfile.py', 'PYMODULE'),
  ('py_compile', '/usr/lib/python3.6/py_compile.py', 'PYMODULE'),
  ('zipfile', '/usr/lib/python3.6/zipfile.py', 'PYMODULE'),
  ('shutil', '/usr/lib/python3.6/shutil.py', 'PYMODULE'),
  ('pydoc', '/usr/lib/python3.6/pydoc.py', 'PYMODULE'),
  ('pdb', '/usr/lib/python3.6/pdb.py', 'PYMODULE'),
  ('unittest.util', '/usr/lib/python3.6/unittest/util.py', 'PYMODULE'),
  ('unittest.result', '/usr/lib/python3.6/unittest/result.py', 'PYMODULE'),
  ('logging', '/usr/lib/python3.6/logging/__init__.py', 'PYMODULE'),
  ('pprint', '/usr/lib/python3.6/pprint.py', 'PYMODULE'),
  ('unittest.case', '/usr/lib/python3.6/unittest/case.py', 'PYMODULE'),
  ('unittest.suite', '/usr/lib/python3.6/unittest/suite.py', 'PYMODULE'),
  ('fnmatch', '/usr/lib/python3.6/fnmatch.py', 'PYMODULE'),
  ('unittest.loader', '/usr/lib/python3.6/unittest/loader.py', 'PYMODULE'),
  ('unittest.runner', '/usr/lib/python3.6/unittest/runner.py', 'PYMODULE'),
  ('unittest.main', '/usr/lib/python3.6/unittest/main.py', 'PYMODULE'),
  ('unittest.signals', '/usr/lib/python3.6/unittest/signals.py', 'PYMODULE'),
  ('unittest', '/usr/lib/python3.6/unittest/__init__.py', 'PYMODULE'),
  ('doctest', '/usr/lib/python3.6/doctest.py', 'PYMODULE'),
  ('stringprep', '/usr/lib/python3.6/stringprep.py', 'PYMODULE'),
  ('_compression', '/usr/lib/python3.6/_compression.py', 'PYMODULE'),
  ('bz2', '/usr/lib/python3.6/bz2.py', 'PYMODULE'),
  ('base64', '/usr/lib/python3.6/base64.py', 'PYMODULE'),
  ('struct', '/usr/lib/python3.6/struct.py', 'PYMODULE'),
  ('gettext', '/usr/lib/python3.6/gettext.py', 'PYMODULE'),
  ('getopt', '/usr/lib/python3.6/getopt.py', 'PYMODULE'),
  ('quopri', '/usr/lib/python3.6/quopri.py', 'PYMODULE'),
  ('copy', '/usr/lib/python3.6/copy.py', 'PYMODULE'),
  ('stat', '/usr/lib/python3.6/stat.py', 'PYMODULE'),
  ('genericpath', '/usr/lib/python3.6/genericpath.py', 'PYMODULE'),
  ('string', '/usr/lib/python3.6/string.py', 'PYMODULE'),
  ('ntpath', '/usr/lib/python3.6/ntpath.py', 'PYMODULE'),
  ('signal', '/usr/lib/python3.6/signal.py', 'PYMODULE'),
  ('contextlib', '/usr/lib/python3.6/contextlib.py', 'PYMODULE'),
  ('_threading_local', '/usr/lib/python3.6/_threading_local.py', 'PYMODULE'),
  ('threading', '/usr/lib/python3.6/threading.py', 'PYMODULE'),
  ('selectors', '/usr/lib/python3.6/selectors.py', 'PYMODULE'),
  ('_dummy_thread', '/usr/lib/python3.6/_dummy_thread.py', 'PYMODULE'),
  ('dummy_threading', '/usr/lib/python3.6/dummy_threading.py', 'PYMODULE'),
  ('Worker', '/home/izi/Desktop/V3-linux/Worker.py', 'PYMODULE'),
  ('psutil',
   '/home/izi/.local/lib/python3.6/site-packages/psutil/__init__.py',
   'PYMODULE'),
  ('psutil._psaix',
   '/home/izi/.local/lib/python3.6/site-packages/psutil/_psaix.py',
   'PYMODULE'),
  ('psutil._pssunos',
   '/home/izi/.local/lib/python3.6/site-packages/psutil/_pssunos.py',
   'PYMODULE'),
  ('psutil._psbsd',
   '/home/izi/.local/lib/python3.6/site-packages/psutil/_psbsd.py',
   'PYMODULE'),
  ('xml.etree.ElementTree',
   '/usr/lib/python3.6/xml/etree/ElementTree.py',
   'PYMODULE'),
  ('xml.etree.cElementTree',
   '/usr/lib/python3.6/xml/etree/cElementTree.py',
   'PYMODULE'),
  ('xml.etree.ElementInclude',
   '/usr/lib/python3.6/xml/etree/ElementInclude.py',
   'PYMODULE'),
  ('xml.etree.ElementPath',
   '/usr/lib/python3.6/xml/etree/ElementPath.py',
   'PYMODULE'),
  ('xml.etree', '/usr/lib/python3.6/xml/etree/__init__.py', 'PYMODULE'),
  ('psutil._psosx',
   '/home/izi/.local/lib/python3.6/site-packages/psutil/_psosx.py',
   'PYMODULE'),
  ('psutil._pswindows',
   '/home/izi/.local/lib/python3.6/site-packages/psutil/_pswindows.py',
   'PYMODULE'),
  ('psutil._pslinux',
   '/home/izi/.local/lib/python3.6/site-packages/psutil/_pslinux.py',
   'PYMODULE'),
  ('psutil._psposix',
   '/home/izi/.local/lib/python3.6/site-packages/psutil/_psposix.py',
   'PYMODULE'),
  ('psutil._compat',
   '/home/izi/.local/lib/python3.6/site-packages/psutil/_compat.py',
   'PYMODULE'),
  ('psutil._common',
   '/home/izi/.local/lib/python3.6/site-packages/psutil/_common.py',
   'PYMODULE'),
  ('PyQt5.uic',
   '/home/izi/.local/lib/python3.6/site-packages/PyQt5/uic/__init__.py',
   'PYMODULE'),
  ('PyQt5.uic.objcreator',
   '/home/izi/.local/lib/python3.6/site-packages/PyQt5/uic/objcreator.py',
   'PYMODULE'),
  ('PyQt5.uic.exceptions',
   '/home/izi/.local/lib/python3.6/site-packages/PyQt5/uic/exceptions.py',
   'PYMODULE'),
  ('PyQt5.uic.Loader.loader',
   '/home/izi/.local/lib/python3.6/site-packages/PyQt5/uic/Loader/loader.py',
   'PYMODULE'),
  ('PyQt5.uic.Loader',
   '/home/izi/.local/lib/python3.6/site-packages/PyQt5/uic/Loader/__init__.py',
   'PYMODULE'),
  ('PyQt5.uic.Loader.qobjectcreator',
   '/home/izi/.local/lib/python3.6/site-packages/PyQt5/uic/Loader/qobjectcreator.py',
   'PYMODULE'),
  ('PyQt5.uic.uiparser',
   '/home/izi/.local/lib/python3.6/site-packages/PyQt5/uic/uiparser.py',
   'PYMODULE'),
  ('PyQt5.uic.properties',
   '/home/izi/.local/lib/python3.6/site-packages/PyQt5/uic/properties.py',
   'PYMODULE'),
  ('PyQt5.uic.port_v3.ascii_upper',
   '/home/izi/.local/lib/python3.6/site-packages/PyQt5/uic/port_v3/ascii_upper.py',
   'PYMODULE'),
  ('PyQt5.uic.port_v3',
   '/home/izi/.local/lib/python3.6/site-packages/PyQt5/uic/port_v3/__init__.py',
   'PYMODULE'),
  ('PyQt5.uic.icon_cache',
   '/home/izi/.local/lib/python3.6/site-packages/PyQt5/uic/icon_cache.py',
   'PYMODULE'),
  ('PyQt5.uic.port_v2.string_io',
   '/home/izi/.local/lib/python3.6/site-packages/PyQt5/uic/port_v2/string_io.py',
   'PYMODULE'),
  ('PyQt5.uic.port_v2',
   '/home/izi/.local/lib/python3.6/site-packages/PyQt5/uic/port_v2/__init__.py',
   'PYMODULE'),
  ('PyQt5.uic.port_v3.string_io',
   '/home/izi/.local/lib/python3.6/site-packages/PyQt5/uic/port_v3/string_io.py',
   'PYMODULE'),
  ('PyQt5.uic.Compiler.compiler',
   '/home/izi/.local/lib/python3.6/site-packages/PyQt5/uic/Compiler/compiler.py',
   'PYMODULE'),
  ('PyQt5.uic.Compiler.qobjectcreator',
   '/home/izi/.local/lib/python3.6/site-packages/PyQt5/uic/Compiler/qobjectcreator.py',
   'PYMODULE'),
  ('PyQt5.uic.port_v2.as_string',
   '/home/izi/.local/lib/python3.6/site-packages/PyQt5/uic/port_v2/as_string.py',
   'PYMODULE'),
  ('PyQt5.uic.port_v3.as_string',
   '/home/izi/.local/lib/python3.6/site-packages/PyQt5/uic/port_v3/as_string.py',
   'PYMODULE'),
  ('PyQt5.uic.Compiler.qtproxies',
   '/home/izi/.local/lib/python3.6/site-packages/PyQt5/uic/Compiler/qtproxies.py',
   'PYMODULE'),
  ('PyQt5.uic.port_v2.proxy_base',
   '/home/izi/.local/lib/python3.6/site-packages/PyQt5/uic/port_v2/proxy_base.py',
   'PYMODULE'),
  ('PyQt5.uic.Compiler.proxy_metaclass',
   '/home/izi/.local/lib/python3.6/site-packages/PyQt5/uic/Compiler/proxy_metaclass.py',
   'PYMODULE'),
  ('PyQt5.uic.port_v3.proxy_base',
   '/home/izi/.local/lib/python3.6/site-packages/PyQt5/uic/port_v3/proxy_base.py',
   'PYMODULE'),
  ('PyQt5.uic.Compiler.misc',
   '/home/izi/.local/lib/python3.6/site-packages/PyQt5/uic/Compiler/misc.py',
   'PYMODULE'),
  ('PyQt5.uic.Compiler.indenter',
   '/home/izi/.local/lib/python3.6/site-packages/PyQt5/uic/Compiler/indenter.py',
   'PYMODULE'),
  ('PyQt5.uic.Compiler',
   '/home/izi/.local/lib/python3.6/site-packages/PyQt5/uic/Compiler/__init__.py',
   'PYMODULE'),
  ('PyQt5',
   '/home/izi/.local/lib/python3.6/site-packages/PyQt5/__init__.py',
   'PYMODULE'),
  ('webbrowser', '/usr/lib/python3.6/webbrowser.py', 'PYMODULE'),
  ('subprocess', '/usr/lib/python3.6/subprocess.py', 'PYMODULE'),
  ('socket', '/usr/lib/python3.6/socket.py', 'PYMODULE'),
  ('os', '/usr/lib/python3.6/os.py', 'PYMODULE')],
 [('libexpat.so.1', '/lib/x86_64-linux-gnu/libexpat.so.1', 'BINARY'),
  ('libz.so.1', '/lib/x86_64-linux-gnu/libz.so.1', 'BINARY'),
  ('PyQt5/Qt/plugins/imageformats/libqwbmp.so',
   '/home/izi/.local/lib/python3.6/site-packages/PyQt5/Qt/plugins/imageformats/libqwbmp.so',
   'BINARY'),
  ('PyQt5/Qt/plugins/platforms/libqwayland-xcomposite-glx.so',
   '/home/izi/.local/lib/python3.6/site-packages/PyQt5/Qt/plugins/platforms/libqwayland-xcomposite-glx.so',
   'BINARY'),
  ('PyQt5/Qt/plugins/platformthemes/libqgtk3.so',
   '/home/izi/.local/lib/python3.6/site-packages/PyQt5/Qt/plugins/platformthemes/libqgtk3.so',
   'BINARY'),
  ('PyQt5/Qt/plugins/iconengines/libqsvgicon.so',
   '/home/izi/.local/lib/python3.6/site-packages/PyQt5/Qt/plugins/iconengines/libqsvgicon.so',
   'BINARY'),
  ('PyQt5/Qt/plugins/imageformats/libqico.so',
   '/home/izi/.local/lib/python3.6/site-packages/PyQt5/Qt/plugins/imageformats/libqico.so',
   'BINARY'),
  ('PyQt5/Qt/plugins/imageformats/libqicns.so',
   '/home/izi/.local/lib/python3.6/site-packages/PyQt5/Qt/plugins/imageformats/libqicns.so',
   'BINARY'),
  ('PyQt5/Qt/plugins/imageformats/libqwebp.so',
   '/home/izi/.local/lib/python3.6/site-packages/PyQt5/Qt/plugins/imageformats/libqwebp.so',
   'BINARY'),
  ('PyQt5/Qt/plugins/imageformats/libqtiff.so',
   '/home/izi/.local/lib/python3.6/site-packages/PyQt5/Qt/plugins/imageformats/libqtiff.so',
   'BINARY'),
  ('PyQt5/Qt/plugins/platforminputcontexts/libibusplatforminputcontextplugin.so',
   '/home/izi/.local/lib/python3.6/site-packages/PyQt5/Qt/plugins/platforminputcontexts/libibusplatforminputcontextplugin.so',
   'BINARY'),
  ('PyQt5/Qt/plugins/platforms/libqwayland-egl.so',
   '/home/izi/.local/lib/python3.6/site-packages/PyQt5/Qt/plugins/platforms/libqwayland-egl.so',
   'BINARY'),
  ('PyQt5/Qt/plugins/imageformats/libqtga.so',
   '/home/izi/.local/lib/python3.6/site-packages/PyQt5/Qt/plugins/imageformats/libqtga.so',
   'BINARY'),
  ('PyQt5/Qt/plugins/imageformats/libqjpeg.so',
   '/home/izi/.local/lib/python3.6/site-packages/PyQt5/Qt/plugins/imageformats/libqjpeg.so',
   'BINARY'),
  ('PyQt5/Qt/plugins/imageformats/libqgif.so',
   '/home/izi/.local/lib/python3.6/site-packages/PyQt5/Qt/plugins/imageformats/libqgif.so',
   'BINARY'),
  ('PyQt5/Qt/plugins/platforms/libqlinuxfb.so',
   '/home/izi/.local/lib/python3.6/site-packages/PyQt5/Qt/plugins/platforms/libqlinuxfb.so',
   'BINARY'),
  ('PyQt5/Qt/plugins/platforms/libqminimal.so',
   '/home/izi/.local/lib/python3.6/site-packages/PyQt5/Qt/plugins/platforms/libqminimal.so',
   'BINARY'),
  ('PyQt5/Qt/plugins/platforms/libqwayland-generic.so',
   '/home/izi/.local/lib/python3.6/site-packages/PyQt5/Qt/plugins/platforms/libqwayland-generic.so',
   'BINARY'),
  ('PyQt5/Qt/plugins/platforms/libqxcb.so',
   '/home/izi/.local/lib/python3.6/site-packages/PyQt5/Qt/plugins/platforms/libqxcb.so',
   'BINARY'),
  ('PyQt5/Qt/plugins/platforms/libqoffscreen.so',
   '/home/izi/.local/lib/python3.6/site-packages/PyQt5/Qt/plugins/platforms/libqoffscreen.so',
   'BINARY'),
  ('PyQt5/Qt/plugins/imageformats/libqsvg.so',
   '/home/izi/.local/lib/python3.6/site-packages/PyQt5/Qt/plugins/imageformats/libqsvg.so',
   'BINARY'),
  ('PyQt5/Qt/plugins/platforms/libqvnc.so',
   '/home/izi/.local/lib/python3.6/site-packages/PyQt5/Qt/plugins/platforms/libqvnc.so',
   'BINARY'),
  ('PyQt5/Qt/plugins/platforms/libqeglfs.so',
   '/home/izi/.local/lib/python3.6/site-packages/PyQt5/Qt/plugins/platforms/libqeglfs.so',
   'BINARY'),
  ('PyQt5/Qt/plugins/platforms/libqminimalegl.so',
   '/home/izi/.local/lib/python3.6/site-packages/PyQt5/Qt/plugins/platforms/libqminimalegl.so',
   'BINARY'),
  ('PyQt5/Qt/plugins/platforminputcontexts/libcomposeplatforminputcontextplugin.so',
   '/home/izi/.local/lib/python3.6/site-packages/PyQt5/Qt/plugins/platforminputcontexts/libcomposeplatforminputcontextplugin.so',
   'BINARY'),
  ('PyQt5/Qt/plugins/platformthemes/libqxdgdesktopportal.so',
   '/home/izi/.local/lib/python3.6/site-packages/PyQt5/Qt/plugins/platformthemes/libqxdgdesktopportal.so',
   'BINARY'),
  ('PyQt5/Qt/plugins/platforms/libqwayland-xcomposite-egl.so',
   '/home/izi/.local/lib/python3.6/site-packages/PyQt5/Qt/plugins/platforms/libqwayland-xcomposite-egl.so',
   'BINARY'),
  ('PyQt5/Qt/plugins/platforms/libqwebgl.so',
   '/home/izi/.local/lib/python3.6/site-packages/PyQt5/Qt/plugins/platforms/libqwebgl.so',
   'BINARY'),
  ('resource',
   '/usr/lib/python3.6/lib-dynload/resource.cpython-36m-x86_64-linux-gnu.so',
   'EXTENSION'),
  ('_ssl',
   '/usr/lib/python3.6/lib-dynload/_ssl.cpython-36m-x86_64-linux-gnu.so',
   'EXTENSION'),
  ('_opcode',
   '/usr/lib/python3.6/lib-dynload/_opcode.cpython-36m-x86_64-linux-gnu.so',
   'EXTENSION'),
  ('readline',
   '/usr/lib/python3.6/lib-dynload/readline.cpython-36m-x86_64-linux-gnu.so',
   'EXTENSION'),
  ('termios',
   '/usr/lib/python3.6/lib-dynload/termios.cpython-36m-x86_64-linux-gnu.so',
   'EXTENSION'),
  ('_hashlib',
   '/usr/lib/python3.6/lib-dynload/_hashlib.cpython-36m-x86_64-linux-gnu.so',
   'EXTENSION'),
  ('_lzma',
   '/usr/lib/python3.6/lib-dynload/_lzma.cpython-36m-x86_64-linux-gnu.so',
   'EXTENSION'),
  ('_bz2',
   '/usr/lib/python3.6/lib-dynload/_bz2.cpython-36m-x86_64-linux-gnu.so',
   'EXTENSION'),
  ('_codecs_kr',
   '/usr/lib/python3.6/lib-dynload/_codecs_kr.cpython-36m-x86_64-linux-gnu.so',
   'EXTENSION'),
  ('_codecs_hk',
   '/usr/lib/python3.6/lib-dynload/_codecs_hk.cpython-36m-x86_64-linux-gnu.so',
   'EXTENSION'),
  ('_codecs_cn',
   '/usr/lib/python3.6/lib-dynload/_codecs_cn.cpython-36m-x86_64-linux-gnu.so',
   'EXTENSION'),
  ('_codecs_tw',
   '/usr/lib/python3.6/lib-dynload/_codecs_tw.cpython-36m-x86_64-linux-gnu.so',
   'EXTENSION'),
  ('_codecs_iso2022',
   '/usr/lib/python3.6/lib-dynload/_codecs_iso2022.cpython-36m-x86_64-linux-gnu.so',
   'EXTENSION'),
  ('_codecs_jp',
   '/usr/lib/python3.6/lib-dynload/_codecs_jp.cpython-36m-x86_64-linux-gnu.so',
   'EXTENSION'),
  ('_multibytecodec',
   '/usr/lib/python3.6/lib-dynload/_multibytecodec.cpython-36m-x86_64-linux-gnu.so',
   'EXTENSION'),
  ('psutil._psutil_posix',
   '/home/izi/.local/lib/python3.6/site-packages/psutil/_psutil_posix.cpython-36m-x86_64-linux-gnu.so',
   'EXTENSION'),
  ('psutil._psutil_linux',
   '/home/izi/.local/lib/python3.6/site-packages/psutil/_psutil_linux.cpython-36m-x86_64-linux-gnu.so',
   'EXTENSION'),
  ('PyQt5.QtWidgets',
   '/home/izi/.local/lib/python3.6/site-packages/PyQt5/QtWidgets.so',
   'EXTENSION'),
  ('PyQt5.QtGui',
   '/home/izi/.local/lib/python3.6/site-packages/PyQt5/QtGui.so',
   'EXTENSION'),
  ('PyQt5.QtCore',
   '/home/izi/.local/lib/python3.6/site-packages/PyQt5/QtCore.so',
   'EXTENSION'),
  ('PyQt5.sip',
   '/home/izi/.local/lib/python3.6/site-packages/PyQt5/sip.cpython-36m-x86_64-linux-gnu.so',
   'EXTENSION'),
  ('libgcc_s.so.1', '/lib/x86_64-linux-gnu/libgcc_s.so.1', 'BINARY'),
  ('libicui18n.so.56',
   '/home/izi/.local/lib/python3.6/site-packages/PyQt5/Qt/plugins/imageformats/../../lib/libicui18n.so.56',
   'BINARY'),
  ('libQt5Gui.so.5',
   '/home/izi/.local/lib/python3.6/site-packages/PyQt5/Qt/plugins/imageformats/../../lib/libQt5Gui.so.5',
   'BINARY'),
  ('libicuuc.so.56',
   '/home/izi/.local/lib/python3.6/site-packages/PyQt5/Qt/plugins/imageformats/../../lib/libicuuc.so.56',
   'BINARY'),
  ('libQt5Core.so.5',
   '/home/izi/.local/lib/python3.6/site-packages/PyQt5/Qt/plugins/imageformats/../../lib/libQt5Core.so.5',
   'BINARY'),
  ('libglib-2.0.so.0', '/usr/lib/x86_64-linux-gnu/libglib-2.0.so.0', 'BINARY'),
  ('libpcre.so.3', '/lib/x86_64-linux-gnu/libpcre.so.3', 'BINARY'),
  ('libbsd.so.0', '/lib/x86_64-linux-gnu/libbsd.so.0', 'BINARY'),
  ('libgthread-2.0.so.0',
   '/usr/lib/x86_64-linux-gnu/libgthread-2.0.so.0',
   'BINARY'),
  ('libicudata.so.56',
   '/home/izi/.local/lib/python3.6/site-packages/PyQt5/Qt/plugins/imageformats/../../lib/libicudata.so.56',
   'BINARY'),
  ('libGLdispatch.so.0',
   '/usr/lib/x86_64-linux-gnu/libGLdispatch.so.0',
   'BINARY'),
  ('libXdmcp.so.6', '/usr/lib/x86_64-linux-gnu/libXdmcp.so.6', 'BINARY'),
  ('libGLX.so.0', '/usr/lib/x86_64-linux-gnu/libGLX.so.0', 'BINARY'),
  ('libXau.so.6', '/usr/lib/x86_64-linux-gnu/libXau.so.6', 'BINARY'),
  ('libX11.so.6', '/usr/lib/x86_64-linux-gnu/libX11.so.6', 'BINARY'),
  ('libstdc++.so.6', '/usr/lib/x86_64-linux-gnu/libstdc++.so.6', 'BINARY'),
  ('libXcomposite.so.1',
   '/usr/lib/x86_64-linux-gnu/libXcomposite.so.1',
   'BINARY'),
  ('libgpg-error.so.0', '/lib/x86_64-linux-gnu/libgpg-error.so.0', 'BINARY'),
  ('libgcrypt.so.20', '/lib/x86_64-linux-gnu/libgcrypt.so.20', 'BINARY'),
  ('libdbus-1.so.3', '/lib/x86_64-linux-gnu/libdbus-1.so.3', 'BINARY'),
  ('liblzma.so.5', '/lib/x86_64-linux-gnu/liblzma.so.5', 'BINARY'),
  ('liblz4.so.1', '/usr/lib/x86_64-linux-gnu/liblz4.so.1', 'BINARY'),
  ('libQt5WaylandClient.so.5',
   '/home/izi/.local/lib/python3.6/site-packages/PyQt5/Qt/plugins/platforms/../../lib/libQt5WaylandClient.so.5',
   'BINARY'),
  ('libwayland-client.so.0',
   '/usr/lib/x86_64-linux-gnu/libwayland-client.so.0',
   'BINARY'),
  ('libXext.so.6', '/usr/lib/x86_64-linux-gnu/libXext.so.6', 'BINARY'),
  ('libfreetype.so.6', '/usr/lib/x86_64-linux-gnu/libfreetype.so.6', 'BINARY'),
  ('libwayland-cursor.so.0',
   '/usr/lib/x86_64-linux-gnu/libwayland-cursor.so.0',
   'BINARY'),
  ('libffi.so.6', '/usr/lib/x86_64-linux-gnu/libffi.so.6', 'BINARY'),
  ('libQt5DBus.so.5',
   '/home/izi/.local/lib/python3.6/site-packages/PyQt5/Qt/plugins/platforms/../../lib/libQt5DBus.so.5',
   'BINARY'),
  ('libpng16.so.16', '/usr/lib/x86_64-linux-gnu/libpng16.so.16', 'BINARY'),
  ('libxkbcommon.so.0',
   '/usr/lib/x86_64-linux-gnu/libxkbcommon.so.0',
   'BINARY'),
  ('libfontconfig.so.1',
   '/usr/lib/x86_64-linux-gnu/libfontconfig.so.1',
   'BINARY'),
  ('libsystemd.so.0', '/lib/x86_64-linux-gnu/libsystemd.so.0', 'BINARY'),
  ('libXrender.so.1', '/usr/lib/x86_64-linux-gnu/libXrender.so.1', 'BINARY'),
  ('libXi.so.6', '/usr/lib/x86_64-linux-gnu/libXi.so.6', 'BINARY'),
  ('libgdk-3.so.0', '/usr/lib/x86_64-linux-gnu/libgdk-3.so.0', 'BINARY'),
  ('libxcb-shm.so.0', '/usr/lib/x86_64-linux-gnu/libxcb-shm.so.0', 'BINARY'),
  ('libatspi.so.0', '/usr/lib/x86_64-linux-gnu/libatspi.so.0', 'BINARY'),
  ('libXdamage.so.1', '/usr/lib/x86_64-linux-gnu/libXdamage.so.1', 'BINARY'),
  ('libgio-2.0.so.0', '/usr/lib/x86_64-linux-gnu/libgio-2.0.so.0', 'BINARY'),
  ('libthai.so.0', '/usr/lib/x86_64-linux-gnu/libthai.so.0', 'BINARY'),
  ('libatk-1.0.so.0', '/usr/lib/x86_64-linux-gnu/libatk-1.0.so.0', 'BINARY'),
  ('libatk-bridge-2.0.so.0',
   '/usr/lib/x86_64-linux-gnu/libatk-bridge-2.0.so.0',
   'BINARY'),
  ('libharfbuzz.so.0', '/usr/lib/x86_64-linux-gnu/libharfbuzz.so.0', 'BINARY'),
  ('libpixman-1.so.0', '/usr/lib/x86_64-linux-gnu/libpixman-1.so.0', 'BINARY'),
  ('libselinux.so.1', '/lib/x86_64-linux-gnu/libselinux.so.1', 'BINARY'),
  ('libpangocairo-1.0.so.0',
   '/usr/lib/x86_64-linux-gnu/libpangocairo-1.0.so.0',
   'BINARY'),
  ('libmount.so.1', '/lib/x86_64-linux-gnu/libmount.so.1', 'BINARY'),
  ('libXrandr.so.2', '/usr/lib/x86_64-linux-gnu/libXrandr.so.2', 'BINARY'),
  ('libcairo.so.2', '/usr/lib/x86_64-linux-gnu/libcairo.so.2', 'BINARY'),
  ('libgtk-3.so.0', '/usr/lib/x86_64-linux-gnu/libgtk-3.so.0', 'BINARY'),
  ('libwayland-egl.so.1',
   '/usr/lib/x86_64-linux-gnu/libwayland-egl.so.1',
   'BINARY'),
  ('libgraphite2.so.3',
   '/usr/lib/x86_64-linux-gnu/libgraphite2.so.3',
   'BINARY'),
  ('libuuid.so.1', '/lib/x86_64-linux-gnu/libuuid.so.1', 'BINARY'),
  ('libgdk_pixbuf-2.0.so.0',
   '/usr/lib/x86_64-linux-gnu/libgdk_pixbuf-2.0.so.0',
   'BINARY'),
  ('libgmodule-2.0.so.0',
   '/usr/lib/x86_64-linux-gnu/libgmodule-2.0.so.0',
   'BINARY'),
  ('libgobject-2.0.so.0',
   '/usr/lib/x86_64-linux-gnu/libgobject-2.0.so.0',
   'BINARY'),
  ('libdatrie.so.1', '/usr/lib/x86_64-linux-gnu/libdatrie.so.1', 'BINARY'),
  ('libxcb-render.so.0',
   '/usr/lib/x86_64-linux-gnu/libxcb-render.so.0',
   'BINARY'),
  ('libblkid.so.1', '/lib/x86_64-linux-gnu/libblkid.so.1', 'BINARY'),
  ('libXcursor.so.1', '/usr/lib/x86_64-linux-gnu/libXcursor.so.1', 'BINARY'),
  ('libpango-1.0.so.0',
   '/usr/lib/x86_64-linux-gnu/libpango-1.0.so.0',
   'BINARY'),
  ('libepoxy.so.0', '/usr/lib/x86_64-linux-gnu/libepoxy.so.0', 'BINARY'),
  ('libpangoft2-1.0.so.0',
   '/usr/lib/x86_64-linux-gnu/libpangoft2-1.0.so.0',
   'BINARY'),
  ('libXfixes.so.3', '/usr/lib/x86_64-linux-gnu/libXfixes.so.3', 'BINARY'),
  ('libcairo-gobject.so.2',
   '/usr/lib/x86_64-linux-gnu/libcairo-gobject.so.2',
   'BINARY'),
  ('libXinerama.so.1', '/usr/lib/x86_64-linux-gnu/libXinerama.so.1', 'BINARY'),
  ('libQt5Widgets.so.5',
   '/home/izi/.local/lib/python3.6/site-packages/PyQt5/Qt/plugins/iconengines/../../lib/libQt5Widgets.so.5',
   'BINARY'),
  ('libQt5Svg.so.5',
   '/home/izi/.local/lib/python3.6/site-packages/PyQt5/Qt/plugins/iconengines/../../lib/libQt5Svg.so.5',
   'BINARY'),
  ('libEGL.so.1', '/usr/lib/x86_64-linux-gnu/libEGL.so.1', 'BINARY'),
  ('libdrm.so.2', '/usr/lib/x86_64-linux-gnu/libdrm.so.2', 'BINARY'),
  ('libxcb-xkb.so.1', '/usr/lib/x86_64-linux-gnu/libxcb-xkb.so.1', 'BINARY'),
  ('libX11-xcb.so.1', '/usr/lib/x86_64-linux-gnu/libX11-xcb.so.1', 'BINARY'),
  ('libxkbcommon-x11.so.0',
   '/usr/lib/x86_64-linux-gnu/libxkbcommon-x11.so.0',
   'BINARY'),
  ('libQt5XcbQpa.so.5',
   '/home/izi/.local/lib/python3.6/site-packages/PyQt5/Qt/plugins/platforms/../../lib/libQt5XcbQpa.so.5',
   'BINARY'),
  ('libQt5Network.so.5',
   '/home/izi/.local/lib/python3.6/site-packages/PyQt5/Qt/plugins/platforms/../../lib/libQt5Network.so.5',
   'BINARY'),
  ('libmtdev.so.1', '/usr/lib/x86_64-linux-gnu/libmtdev.so.1', 'BINARY'),
  ('libQt5EglFSDeviceIntegration.so.5',
   '/usr/lib/x86_64-linux-gnu/libQt5EglFSDeviceIntegration.so.5',
   'BINARY'),
  ('libevdev.so.2', '/usr/lib/x86_64-linux-gnu/libevdev.so.2', 'BINARY'),
  ('libwacom.so.2', '/usr/lib/x86_64-linux-gnu/libwacom.so.2', 'BINARY'),
  ('libudev.so.1', '/lib/x86_64-linux-gnu/libudev.so.1', 'BINARY'),
  ('libgudev-1.0.so.0',
   '/usr/lib/x86_64-linux-gnu/libgudev-1.0.so.0',
   'BINARY'),
  ('libinput.so.10', '/usr/lib/x86_64-linux-gnu/libinput.so.10', 'BINARY'),
  ('libQt5Quick.so.5',
   '/home/izi/.local/lib/python3.6/site-packages/PyQt5/Qt/plugins/platforms/../../lib/libQt5Quick.so.5',
   'BINARY'),
  ('libQt5Qml.so.5',
   '/home/izi/.local/lib/python3.6/site-packages/PyQt5/Qt/plugins/platforms/../../lib/libQt5Qml.so.5',
   'BINARY'),
  ('libQt5WebSockets.so.5',
   '/home/izi/.local/lib/python3.6/site-packages/PyQt5/Qt/plugins/platforms/../../lib/libQt5WebSockets.so.5',
   'BINARY'),
  ('libcrypto.so.1.1', '/usr/lib/x86_64-linux-gnu/libcrypto.so.1.1', 'BINARY'),
  ('libssl.so.1.1', '/usr/lib/x86_64-linux-gnu/libssl.so.1.1', 'BINARY'),
  ('libtinfo.so.5', '/lib/x86_64-linux-gnu/libtinfo.so.5', 'BINARY'),
  ('libreadline.so.7', '/lib/x86_64-linux-gnu/libreadline.so.7', 'BINARY'),
  ('libbz2.so.1.0', '/lib/x86_64-linux-gnu/libbz2.so.1.0', 'BINARY'),
  ('libicuuc.so.60', '/usr/lib/x86_64-linux-gnu/libicuuc.so.60', 'BINARY'),
  ('libicui18n.so.60', '/usr/lib/x86_64-linux-gnu/libicui18n.so.60', 'BINARY'),
  ('libdouble-conversion.so.1',
   '/usr/lib/x86_64-linux-gnu/libdouble-conversion.so.1',
   'BINARY'),
  ('libicudata.so.60', '/usr/lib/x86_64-linux-gnu/libicudata.so.60', 'BINARY'),
  ('libpython3.6m.so.1.0',
   '/usr/lib/x86_64-linux-gnu/libpython3.6m.so.1.0',
   'BINARY')],
 [],
 [],
 [('base_library.zip',
   '/home/izi/Desktop/V3-linux/build/ProtonBrowser/base_library.zip',
   'DATA'),
  ('PyQt5/Qt/translations/qtbase_pl.qm',
   '/home/izi/.local/lib/python3.6/site-packages/PyQt5/Qt/translations/qtbase_pl.qm',
   'DATA'),
  ('PyQt5/uic/widget-plugins/__pycache__/qtprintsupport.cpython-36.pyc',
   '/home/izi/.local/lib/python3.6/site-packages/PyQt5/uic/widget-plugins/__pycache__/qtprintsupport.cpython-36.pyc',
   'DATA'),
  ('PyQt5/Qt/translations/qtbase_sk.qm',
   '/home/izi/.local/lib/python3.6/site-packages/PyQt5/Qt/translations/qtbase_sk.qm',
   'DATA'),
  ('PyQt5/Qt/translations/qtbase_zh_TW.qm',
   '/home/izi/.local/lib/python3.6/site-packages/PyQt5/Qt/translations/qtbase_zh_TW.qm',
   'DATA'),
  ('PyQt5/Qt/translations/qtbase_ru.qm',
   '/home/izi/.local/lib/python3.6/site-packages/PyQt5/Qt/translations/qtbase_ru.qm',
   'DATA'),
  ('PyQt5/uic/widget-plugins/qaxcontainer.py',
   '/home/izi/.local/lib/python3.6/site-packages/PyQt5/uic/widget-plugins/qaxcontainer.py',
   'DATA'),
  ('PyQt5/Qt/translations/qtbase_ja.qm',
   '/home/izi/.local/lib/python3.6/site-packages/PyQt5/Qt/translations/qtbase_ja.qm',
   'DATA'),
  ('PyQt5/uic/widget-plugins/qtquickwidgets.py',
   '/home/izi/.local/lib/python3.6/site-packages/PyQt5/uic/widget-plugins/qtquickwidgets.py',
   'DATA'),
  ('PyQt5/uic/widget-plugins/qtwebenginewidgets.py',
   '/home/izi/.local/lib/python3.6/site-packages/PyQt5/uic/widget-plugins/qtwebenginewidgets.py',
   'DATA'),
  ('PyQt5/Qt/translations/qtbase_hu.qm',
   '/home/izi/.local/lib/python3.6/site-packages/PyQt5/Qt/translations/qtbase_hu.qm',
   'DATA'),
  ('PyQt5/Qt/translations/qtbase_en.qm',
   '/home/izi/.local/lib/python3.6/site-packages/PyQt5/Qt/translations/qtbase_en.qm',
   'DATA'),
  ('PyQt5/uic/widget-plugins/qtcharts.py',
   '/home/izi/.local/lib/python3.6/site-packages/PyQt5/uic/widget-plugins/qtcharts.py',
   'DATA'),
  ('PyQt5/uic/widget-plugins/__pycache__/qaxcontainer.cpython-36.pyc',
   '/home/izi/.local/lib/python3.6/site-packages/PyQt5/uic/widget-plugins/__pycache__/qaxcontainer.cpython-36.pyc',
   'DATA'),
  ('PyQt5/uic/widget-plugins/__pycache__/qtquickwidgets.cpython-36.pyc',
   '/home/izi/.local/lib/python3.6/site-packages/PyQt5/uic/widget-plugins/__pycache__/qtquickwidgets.cpython-36.pyc',
   'DATA'),
  ('PyQt5/uic/widget-plugins/__pycache__/qtcharts.cpython-36.pyc',
   '/home/izi/.local/lib/python3.6/site-packages/PyQt5/uic/widget-plugins/__pycache__/qtcharts.cpython-36.pyc',
   'DATA'),
  ('PyQt5/Qt/translations/qtbase_ca.qm',
   '/home/izi/.local/lib/python3.6/site-packages/PyQt5/Qt/translations/qtbase_ca.qm',
   'DATA'),
  ('PyQt5/Qt/translations/qtbase_es.qm',
   '/home/izi/.local/lib/python3.6/site-packages/PyQt5/Qt/translations/qtbase_es.qm',
   'DATA'),
  ('PyQt5/Qt/translations/qtbase_da.qm',
   '/home/izi/.local/lib/python3.6/site-packages/PyQt5/Qt/translations/qtbase_da.qm',
   'DATA'),
  ('PyQt5/Qt/translations/qtbase_cs.qm',
   '/home/izi/.local/lib/python3.6/site-packages/PyQt5/Qt/translations/qtbase_cs.qm',
   'DATA'),
  ('PyQt5/Qt/translations/qtbase_lv.qm',
   '/home/izi/.local/lib/python3.6/site-packages/PyQt5/Qt/translations/qtbase_lv.qm',
   'DATA'),
  ('PyQt5/Qt/translations/qtbase_it.qm',
   '/home/izi/.local/lib/python3.6/site-packages/PyQt5/Qt/translations/qtbase_it.qm',
   'DATA'),
  ('PyQt5/Qt/translations/qtbase_fr.qm',
   '/home/izi/.local/lib/python3.6/site-packages/PyQt5/Qt/translations/qtbase_fr.qm',
   'DATA'),
  ('PyQt5/uic/widget-plugins/qtprintsupport.py',
   '/home/izi/.local/lib/python3.6/site-packages/PyQt5/uic/widget-plugins/qtprintsupport.py',
   'DATA'),
  ('PyQt5/uic/widget-plugins/__pycache__/qtwebenginewidgets.cpython-36.pyc',
   '/home/izi/.local/lib/python3.6/site-packages/PyQt5/uic/widget-plugins/__pycache__/qtwebenginewidgets.cpython-36.pyc',
   'DATA'),
  ('PyQt5/uic/widget-plugins/__pycache__/qscintilla.cpython-36.pyc',
   '/home/izi/.local/lib/python3.6/site-packages/PyQt5/uic/widget-plugins/__pycache__/qscintilla.cpython-36.pyc',
   'DATA'),
  ('PyQt5/Qt/translations/qtbase_uk.qm',
   '/home/izi/.local/lib/python3.6/site-packages/PyQt5/Qt/translations/qtbase_uk.qm',
   'DATA'),
  ('PyQt5/Qt/translations/qtbase_ar.qm',
   '/home/izi/.local/lib/python3.6/site-packages/PyQt5/Qt/translations/qtbase_ar.qm',
   'DATA'),
  ('PyQt5/Qt/translations/qtbase_he.qm',
   '/home/izi/.local/lib/python3.6/site-packages/PyQt5/Qt/translations/qtbase_he.qm',
   'DATA'),
  ('PyQt5/Qt/translations/qtbase_ko.qm',
   '/home/izi/.local/lib/python3.6/site-packages/PyQt5/Qt/translations/qtbase_ko.qm',
   'DATA'),
  ('PyQt5/Qt/translations/qtbase_gd.qm',
   '/home/izi/.local/lib/python3.6/site-packages/PyQt5/Qt/translations/qtbase_gd.qm',
   'DATA'),
  ('PyQt5/uic/widget-plugins/__pycache__/qtwebkit.cpython-36.pyc',
   '/home/izi/.local/lib/python3.6/site-packages/PyQt5/uic/widget-plugins/__pycache__/qtwebkit.cpython-36.pyc',
   'DATA'),
  ('PyQt5/Qt/translations/qtbase_bg.qm',
   '/home/izi/.local/lib/python3.6/site-packages/PyQt5/Qt/translations/qtbase_bg.qm',
   'DATA'),
  ('PyQt5/Qt/translations/qtbase_de.qm',
   '/home/izi/.local/lib/python3.6/site-packages/PyQt5/Qt/translations/qtbase_de.qm',
   'DATA'),
  ('PyQt5/uic/widget-plugins/qtwebkit.py',
   '/home/izi/.local/lib/python3.6/site-packages/PyQt5/uic/widget-plugins/qtwebkit.py',
   'DATA'),
  ('PyQt5/Qt/translations/qtbase_fi.qm',
   '/home/izi/.local/lib/python3.6/site-packages/PyQt5/Qt/translations/qtbase_fi.qm',
   'DATA'),
  ('PyQt5/uic/widget-plugins/qscintilla.py',
   '/home/izi/.local/lib/python3.6/site-packages/PyQt5/uic/widget-plugins/qscintilla.py',
   'DATA')],
 [])
