('/home/izi/Desktop/V3-linux/dist/ProtonBrowser',
 True,
 False,
 False,
 None,
 None,
 False,
 False,
 None,
 True,
 'ProtonBrowser.pkg',
 [('PYZ-00.pyz',
   '/home/izi/Desktop/V3-linux/build/ProtonBrowser/PYZ-00.pyz',
   'PYZ'),
  ('struct',
   '/home/izi/Desktop/V3-linux/build/ProtonBrowser/localpycos/struct.pyo',
   'PYMODULE'),
  ('pyimod01_os_path',
   '/home/izi/.local/lib/python3.6/site-packages/PyInstaller/loader/pyimod01_os_path.pyc',
   'PYMODULE'),
  ('pyimod02_archive',
   '/home/izi/.local/lib/python3.6/site-packages/PyInstaller/loader/pyimod02_archive.pyc',
   'PYMODULE'),
  ('pyimod03_importers',
   '/home/izi/.local/lib/python3.6/site-packages/PyInstaller/loader/pyimod03_importers.pyc',
   'PYMODULE'),
  ('pyiboot01_bootstrap',
   '/home/izi/.local/lib/python3.6/site-packages/PyInstaller/loader/pyiboot01_bootstrap.py',
   'PYSOURCE'),
  ('pyi_rth_pyqt5',
   '/home/izi/.local/lib/python3.6/site-packages/PyInstaller/loader/rthooks/pyi_rth_pyqt5.py',
   'PYSOURCE'),
  ('ProtonBrowser', '/home/izi/Desktop/V3-linux/ProtonBrowser.py', 'PYSOURCE'),
  ('libexpat.so.1', '/lib/x86_64-linux-gnu/libexpat.so.1', 'BINARY'),
  ('libz.so.1', '/lib/x86_64-linux-gnu/libz.so.1', 'BINARY'),
  ('PyQt5/Qt/plugins/imageformats/libqwbmp.so',
   '/home/izi/.local/lib/python3.6/site-packages/PyQt5/Qt/plugins/imageformats/libqwbmp.so',
   'BINARY'),
  ('PyQt5/Qt/plugins/platforms/libqwayland-xcomposite-glx.so',
   '/home/izi/.local/lib/python3.6/site-packages/PyQt5/Qt/plugins/platforms/libqwayland-xcomposite-glx.so',
   'BINARY'),
  ('PyQt5/Qt/plugins/platformthemes/libqgtk3.so',
   '/home/izi/.local/lib/python3.6/site-packages/PyQt5/Qt/plugins/platformthemes/libqgtk3.so',
   'BINARY'),
  ('PyQt5/Qt/plugins/iconengines/libqsvgicon.so',
   '/home/izi/.local/lib/python3.6/site-packages/PyQt5/Qt/plugins/iconengines/libqsvgicon.so',
   'BINARY'),
  ('PyQt5/Qt/plugins/imageformats/libqico.so',
   '/home/izi/.local/lib/python3.6/site-packages/PyQt5/Qt/plugins/imageformats/libqico.so',
   'BINARY'),
  ('PyQt5/Qt/plugins/imageformats/libqicns.so',
   '/home/izi/.local/lib/python3.6/site-packages/PyQt5/Qt/plugins/imageformats/libqicns.so',
   'BINARY'),
  ('PyQt5/Qt/plugins/imageformats/libqwebp.so',
   '/home/izi/.local/lib/python3.6/site-packages/PyQt5/Qt/plugins/imageformats/libqwebp.so',
   'BINARY'),
  ('PyQt5/Qt/plugins/imageformats/libqtiff.so',
   '/home/izi/.local/lib/python3.6/site-packages/PyQt5/Qt/plugins/imageformats/libqtiff.so',
   'BINARY'),
  ('PyQt5/Qt/plugins/platforminputcontexts/libibusplatforminputcontextplugin.so',
   '/home/izi/.local/lib/python3.6/site-packages/PyQt5/Qt/plugins/platforminputcontexts/libibusplatforminputcontextplugin.so',
   'BINARY'),
  ('PyQt5/Qt/plugins/platforms/libqwayland-egl.so',
   '/home/izi/.local/lib/python3.6/site-packages/PyQt5/Qt/plugins/platforms/libqwayland-egl.so',
   'BINARY'),
  ('PyQt5/Qt/plugins/imageformats/libqtga.so',
   '/home/izi/.local/lib/python3.6/site-packages/PyQt5/Qt/plugins/imageformats/libqtga.so',
   'BINARY'),
  ('PyQt5/Qt/plugins/imageformats/libqjpeg.so',
   '/home/izi/.local/lib/python3.6/site-packages/PyQt5/Qt/plugins/imageformats/libqjpeg.so',
   'BINARY'),
  ('PyQt5/Qt/plugins/imageformats/libqgif.so',
   '/home/izi/.local/lib/python3.6/site-packages/PyQt5/Qt/plugins/imageformats/libqgif.so',
   'BINARY'),
  ('PyQt5/Qt/plugins/platforms/libqlinuxfb.so',
   '/home/izi/.local/lib/python3.6/site-packages/PyQt5/Qt/plugins/platforms/libqlinuxfb.so',
   'BINARY'),
  ('PyQt5/Qt/plugins/platforms/libqminimal.so',
   '/home/izi/.local/lib/python3.6/site-packages/PyQt5/Qt/plugins/platforms/libqminimal.so',
   'BINARY'),
  ('PyQt5/Qt/plugins/platforms/libqwayland-generic.so',
   '/home/izi/.local/lib/python3.6/site-packages/PyQt5/Qt/plugins/platforms/libqwayland-generic.so',
   'BINARY'),
  ('PyQt5/Qt/plugins/platforms/libqxcb.so',
   '/home/izi/.local/lib/python3.6/site-packages/PyQt5/Qt/plugins/platforms/libqxcb.so',
   'BINARY'),
  ('PyQt5/Qt/plugins/platforms/libqoffscreen.so',
   '/home/izi/.local/lib/python3.6/site-packages/PyQt5/Qt/plugins/platforms/libqoffscreen.so',
   'BINARY'),
  ('PyQt5/Qt/plugins/imageformats/libqsvg.so',
   '/home/izi/.local/lib/python3.6/site-packages/PyQt5/Qt/plugins/imageformats/libqsvg.so',
   'BINARY'),
  ('PyQt5/Qt/plugins/platforms/libqvnc.so',
   '/home/izi/.local/lib/python3.6/site-packages/PyQt5/Qt/plugins/platforms/libqvnc.so',
   'BINARY'),
  ('PyQt5/Qt/plugins/platforms/libqeglfs.so',
   '/home/izi/.local/lib/python3.6/site-packages/PyQt5/Qt/plugins/platforms/libqeglfs.so',
   'BINARY'),
  ('PyQt5/Qt/plugins/platforms/libqminimalegl.so',
   '/home/izi/.local/lib/python3.6/site-packages/PyQt5/Qt/plugins/platforms/libqminimalegl.so',
   'BINARY'),
  ('PyQt5/Qt/plugins/platforminputcontexts/libcomposeplatforminputcontextplugin.so',
   '/home/izi/.local/lib/python3.6/site-packages/PyQt5/Qt/plugins/platforminputcontexts/libcomposeplatforminputcontextplugin.so',
   'BINARY'),
  ('PyQt5/Qt/plugins/platformthemes/libqxdgdesktopportal.so',
   '/home/izi/.local/lib/python3.6/site-packages/PyQt5/Qt/plugins/platformthemes/libqxdgdesktopportal.so',
   'BINARY'),
  ('PyQt5/Qt/plugins/platforms/libqwayland-xcomposite-egl.so',
   '/home/izi/.local/lib/python3.6/site-packages/PyQt5/Qt/plugins/platforms/libqwayland-xcomposite-egl.so',
   'BINARY'),
  ('PyQt5/Qt/plugins/platforms/libqwebgl.so',
   '/home/izi/.local/lib/python3.6/site-packages/PyQt5/Qt/plugins/platforms/libqwebgl.so',
   'BINARY'),
  ('resource',
   '/usr/lib/python3.6/lib-dynload/resource.cpython-36m-x86_64-linux-gnu.so',
   'EXTENSION'),
  ('_ssl',
   '/usr/lib/python3.6/lib-dynload/_ssl.cpython-36m-x86_64-linux-gnu.so',
   'EXTENSION'),
  ('_opcode',
   '/usr/lib/python3.6/lib-dynload/_opcode.cpython-36m-x86_64-linux-gnu.so',
   'EXTENSION'),
  ('readline',
   '/usr/lib/python3.6/lib-dynload/readline.cpython-36m-x86_64-linux-gnu.so',
   'EXTENSION'),
  ('termios',
   '/usr/lib/python3.6/lib-dynload/termios.cpython-36m-x86_64-linux-gnu.so',
   'EXTENSION'),
  ('_hashlib',
   '/usr/lib/python3.6/lib-dynload/_hashlib.cpython-36m-x86_64-linux-gnu.so',
   'EXTENSION'),
  ('_lzma',
   '/usr/lib/python3.6/lib-dynload/_lzma.cpython-36m-x86_64-linux-gnu.so',
   'EXTENSION'),
  ('_bz2',
   '/usr/lib/python3.6/lib-dynload/_bz2.cpython-36m-x86_64-linux-gnu.so',
   'EXTENSION'),
  ('_codecs_kr',
   '/usr/lib/python3.6/lib-dynload/_codecs_kr.cpython-36m-x86_64-linux-gnu.so',
   'EXTENSION'),
  ('_codecs_hk',
   '/usr/lib/python3.6/lib-dynload/_codecs_hk.cpython-36m-x86_64-linux-gnu.so',
   'EXTENSION'),
  ('_codecs_cn',
   '/usr/lib/python3.6/lib-dynload/_codecs_cn.cpython-36m-x86_64-linux-gnu.so',
   'EXTENSION'),
  ('_codecs_tw',
   '/usr/lib/python3.6/lib-dynload/_codecs_tw.cpython-36m-x86_64-linux-gnu.so',
   'EXTENSION'),
  ('_codecs_iso2022',
   '/usr/lib/python3.6/lib-dynload/_codecs_iso2022.cpython-36m-x86_64-linux-gnu.so',
   'EXTENSION'),
  ('_codecs_jp',
   '/usr/lib/python3.6/lib-dynload/_codecs_jp.cpython-36m-x86_64-linux-gnu.so',
   'EXTENSION'),
  ('_multibytecodec',
   '/usr/lib/python3.6/lib-dynload/_multibytecodec.cpython-36m-x86_64-linux-gnu.so',
   'EXTENSION'),
  ('psutil._psutil_posix',
   '/home/izi/.local/lib/python3.6/site-packages/psutil/_psutil_posix.cpython-36m-x86_64-linux-gnu.so',
   'EXTENSION'),
  ('psutil._psutil_linux',
   '/home/izi/.local/lib/python3.6/site-packages/psutil/_psutil_linux.cpython-36m-x86_64-linux-gnu.so',
   'EXTENSION'),
  ('PyQt5.QtWidgets',
   '/home/izi/.local/lib/python3.6/site-packages/PyQt5/QtWidgets.so',
   'EXTENSION'),
  ('PyQt5.QtGui',
   '/home/izi/.local/lib/python3.6/site-packages/PyQt5/QtGui.so',
   'EXTENSION'),
  ('PyQt5.QtCore',
   '/home/izi/.local/lib/python3.6/site-packages/PyQt5/QtCore.so',
   'EXTENSION'),
  ('PyQt5.sip',
   '/home/izi/.local/lib/python3.6/site-packages/PyQt5/sip.cpython-36m-x86_64-linux-gnu.so',
   'EXTENSION'),
  ('libgcc_s.so.1', '/lib/x86_64-linux-gnu/libgcc_s.so.1', 'BINARY'),
  ('libicui18n.so.56',
   '/home/izi/.local/lib/python3.6/site-packages/PyQt5/Qt/plugins/imageformats/../../lib/libicui18n.so.56',
   'BINARY'),
  ('libQt5Gui.so.5',
   '/home/izi/.local/lib/python3.6/site-packages/PyQt5/Qt/plugins/imageformats/../../lib/libQt5Gui.so.5',
   'BINARY'),
  ('libicuuc.so.56',
   '/home/izi/.local/lib/python3.6/site-packages/PyQt5/Qt/plugins/imageformats/../../lib/libicuuc.so.56',
   'BINARY'),
  ('libQt5Core.so.5',
   '/home/izi/.local/lib/python3.6/site-packages/PyQt5/Qt/plugins/imageformats/../../lib/libQt5Core.so.5',
   'BINARY'),
  ('libglib-2.0.so.0', '/usr/lib/x86_64-linux-gnu/libglib-2.0.so.0', 'BINARY'),
  ('libpcre.so.3', '/lib/x86_64-linux-gnu/libpcre.so.3', 'BINARY'),
  ('libbsd.so.0', '/lib/x86_64-linux-gnu/libbsd.so.0', 'BINARY'),
  ('libgthread-2.0.so.0',
   '/usr/lib/x86_64-linux-gnu/libgthread-2.0.so.0',
   'BINARY'),
  ('libicudata.so.56',
   '/home/izi/.local/lib/python3.6/site-packages/PyQt5/Qt/plugins/imageformats/../../lib/libicudata.so.56',
   'BINARY'),
  ('libGLdispatch.so.0',
   '/usr/lib/x86_64-linux-gnu/libGLdispatch.so.0',
   'BINARY'),
  ('libXdmcp.so.6', '/usr/lib/x86_64-linux-gnu/libXdmcp.so.6', 'BINARY'),
  ('libGLX.so.0', '/usr/lib/x86_64-linux-gnu/libGLX.so.0', 'BINARY'),
  ('libXau.so.6', '/usr/lib/x86_64-linux-gnu/libXau.so.6', 'BINARY'),
  ('libX11.so.6', '/usr/lib/x86_64-linux-gnu/libX11.so.6', 'BINARY'),
  ('libstdc++.so.6', '/usr/lib/x86_64-linux-gnu/libstdc++.so.6', 'BINARY'),
  ('libXcomposite.so.1',
   '/usr/lib/x86_64-linux-gnu/libXcomposite.so.1',
   'BINARY'),
  ('libgpg-error.so.0', '/lib/x86_64-linux-gnu/libgpg-error.so.0', 'BINARY'),
  ('libgcrypt.so.20', '/lib/x86_64-linux-gnu/libgcrypt.so.20', 'BINARY'),
  ('libdbus-1.so.3', '/lib/x86_64-linux-gnu/libdbus-1.so.3', 'BINARY'),
  ('liblzma.so.5', '/lib/x86_64-linux-gnu/liblzma.so.5', 'BINARY'),
  ('liblz4.so.1', '/usr/lib/x86_64-linux-gnu/liblz4.so.1', 'BINARY'),
  ('libQt5WaylandClient.so.5',
   '/home/izi/.local/lib/python3.6/site-packages/PyQt5/Qt/plugins/platforms/../../lib/libQt5WaylandClient.so.5',
   'BINARY'),
  ('libwayland-client.so.0',
   '/usr/lib/x86_64-linux-gnu/libwayland-client.so.0',
   'BINARY'),
  ('libXext.so.6', '/usr/lib/x86_64-linux-gnu/libXext.so.6', 'BINARY'),
  ('libfreetype.so.6', '/usr/lib/x86_64-linux-gnu/libfreetype.so.6', 'BINARY'),
  ('libwayland-cursor.so.0',
   '/usr/lib/x86_64-linux-gnu/libwayland-cursor.so.0',
   'BINARY'),
  ('libffi.so.6', '/usr/lib/x86_64-linux-gnu/libffi.so.6', 'BINARY'),
  ('libQt5DBus.so.5',
   '/home/izi/.local/lib/python3.6/site-packages/PyQt5/Qt/plugins/platforms/../../lib/libQt5DBus.so.5',
   'BINARY'),
  ('libpng16.so.16', '/usr/lib/x86_64-linux-gnu/libpng16.so.16', 'BINARY'),
  ('libxkbcommon.so.0',
   '/usr/lib/x86_64-linux-gnu/libxkbcommon.so.0',
   'BINARY'),
  ('libfontconfig.so.1',
   '/usr/lib/x86_64-linux-gnu/libfontconfig.so.1',
   'BINARY'),
  ('libsystemd.so.0', '/lib/x86_64-linux-gnu/libsystemd.so.0', 'BINARY'),
  ('libXrender.so.1', '/usr/lib/x86_64-linux-gnu/libXrender.so.1', 'BINARY'),
  ('libXi.so.6', '/usr/lib/x86_64-linux-gnu/libXi.so.6', 'BINARY'),
  ('libgdk-3.so.0', '/usr/lib/x86_64-linux-gnu/libgdk-3.so.0', 'BINARY'),
  ('libxcb-shm.so.0', '/usr/lib/x86_64-linux-gnu/libxcb-shm.so.0', 'BINARY'),
  ('libatspi.so.0', '/usr/lib/x86_64-linux-gnu/libatspi.so.0', 'BINARY'),
  ('libXdamage.so.1', '/usr/lib/x86_64-linux-gnu/libXdamage.so.1', 'BINARY'),
  ('libgio-2.0.so.0', '/usr/lib/x86_64-linux-gnu/libgio-2.0.so.0', 'BINARY'),
  ('libthai.so.0', '/usr/lib/x86_64-linux-gnu/libthai.so.0', 'BINARY'),
  ('libatk-1.0.so.0', '/usr/lib/x86_64-linux-gnu/libatk-1.0.so.0', 'BINARY'),
  ('libatk-bridge-2.0.so.0',
   '/usr/lib/x86_64-linux-gnu/libatk-bridge-2.0.so.0',
   'BINARY'),
  ('libharfbuzz.so.0', '/usr/lib/x86_64-linux-gnu/libharfbuzz.so.0', 'BINARY'),
  ('libpixman-1.so.0', '/usr/lib/x86_64-linux-gnu/libpixman-1.so.0', 'BINARY'),
  ('libselinux.so.1', '/lib/x86_64-linux-gnu/libselinux.so.1', 'BINARY'),
  ('libpangocairo-1.0.so.0',
   '/usr/lib/x86_64-linux-gnu/libpangocairo-1.0.so.0',
   'BINARY'),
  ('libmount.so.1', '/lib/x86_64-linux-gnu/libmount.so.1', 'BINARY'),
  ('libXrandr.so.2', '/usr/lib/x86_64-linux-gnu/libXrandr.so.2', 'BINARY'),
  ('libcairo.so.2', '/usr/lib/x86_64-linux-gnu/libcairo.so.2', 'BINARY'),
  ('libgtk-3.so.0', '/usr/lib/x86_64-linux-gnu/libgtk-3.so.0', 'BINARY'),
  ('libwayland-egl.so.1',
   '/usr/lib/x86_64-linux-gnu/libwayland-egl.so.1',
   'BINARY'),
  ('libgraphite2.so.3',
   '/usr/lib/x86_64-linux-gnu/libgraphite2.so.3',
   'BINARY'),
  ('libuuid.so.1', '/lib/x86_64-linux-gnu/libuuid.so.1', 'BINARY'),
  ('libgdk_pixbuf-2.0.so.0',
   '/usr/lib/x86_64-linux-gnu/libgdk_pixbuf-2.0.so.0',
   'BINARY'),
  ('libgmodule-2.0.so.0',
   '/usr/lib/x86_64-linux-gnu/libgmodule-2.0.so.0',
   'BINARY'),
  ('libgobject-2.0.so.0',
   '/usr/lib/x86_64-linux-gnu/libgobject-2.0.so.0',
   'BINARY'),
  ('libdatrie.so.1', '/usr/lib/x86_64-linux-gnu/libdatrie.so.1', 'BINARY'),
  ('libxcb-render.so.0',
   '/usr/lib/x86_64-linux-gnu/libxcb-render.so.0',
   'BINARY'),
  ('libblkid.so.1', '/lib/x86_64-linux-gnu/libblkid.so.1', 'BINARY'),
  ('libXcursor.so.1', '/usr/lib/x86_64-linux-gnu/libXcursor.so.1', 'BINARY'),
  ('libpango-1.0.so.0',
   '/usr/lib/x86_64-linux-gnu/libpango-1.0.so.0',
   'BINARY'),
  ('libepoxy.so.0', '/usr/lib/x86_64-linux-gnu/libepoxy.so.0', 'BINARY'),
  ('libpangoft2-1.0.so.0',
   '/usr/lib/x86_64-linux-gnu/libpangoft2-1.0.so.0',
   'BINARY'),
  ('libXfixes.so.3', '/usr/lib/x86_64-linux-gnu/libXfixes.so.3', 'BINARY'),
  ('libcairo-gobject.so.2',
   '/usr/lib/x86_64-linux-gnu/libcairo-gobject.so.2',
   'BINARY'),
  ('libXinerama.so.1', '/usr/lib/x86_64-linux-gnu/libXinerama.so.1', 'BINARY'),
  ('libQt5Widgets.so.5',
   '/home/izi/.local/lib/python3.6/site-packages/PyQt5/Qt/plugins/iconengines/../../lib/libQt5Widgets.so.5',
   'BINARY'),
  ('libQt5Svg.so.5',
   '/home/izi/.local/lib/python3.6/site-packages/PyQt5/Qt/plugins/iconengines/../../lib/libQt5Svg.so.5',
   'BINARY'),
  ('libEGL.so.1', '/usr/lib/x86_64-linux-gnu/libEGL.so.1', 'BINARY'),
  ('libdrm.so.2', '/usr/lib/x86_64-linux-gnu/libdrm.so.2', 'BINARY'),
  ('libxcb-xkb.so.1', '/usr/lib/x86_64-linux-gnu/libxcb-xkb.so.1', 'BINARY'),
  ('libX11-xcb.so.1', '/usr/lib/x86_64-linux-gnu/libX11-xcb.so.1', 'BINARY'),
  ('libxkbcommon-x11.so.0',
   '/usr/lib/x86_64-linux-gnu/libxkbcommon-x11.so.0',
   'BINARY'),
  ('libQt5XcbQpa.so.5',
   '/home/izi/.local/lib/python3.6/site-packages/PyQt5/Qt/plugins/platforms/../../lib/libQt5XcbQpa.so.5',
   'BINARY'),
  ('libQt5Network.so.5',
   '/home/izi/.local/lib/python3.6/site-packages/PyQt5/Qt/plugins/platforms/../../lib/libQt5Network.so.5',
   'BINARY'),
  ('libmtdev.so.1', '/usr/lib/x86_64-linux-gnu/libmtdev.so.1', 'BINARY'),
  ('libQt5EglFSDeviceIntegration.so.5',
   '/usr/lib/x86_64-linux-gnu/libQt5EglFSDeviceIntegration.so.5',
   'BINARY'),
  ('libevdev.so.2', '/usr/lib/x86_64-linux-gnu/libevdev.so.2', 'BINARY'),
  ('libwacom.so.2', '/usr/lib/x86_64-linux-gnu/libwacom.so.2', 'BINARY'),
  ('libudev.so.1', '/lib/x86_64-linux-gnu/libudev.so.1', 'BINARY'),
  ('libgudev-1.0.so.0',
   '/usr/lib/x86_64-linux-gnu/libgudev-1.0.so.0',
   'BINARY'),
  ('libinput.so.10', '/usr/lib/x86_64-linux-gnu/libinput.so.10', 'BINARY'),
  ('libQt5Quick.so.5',
   '/home/izi/.local/lib/python3.6/site-packages/PyQt5/Qt/plugins/platforms/../../lib/libQt5Quick.so.5',
   'BINARY'),
  ('libQt5Qml.so.5',
   '/home/izi/.local/lib/python3.6/site-packages/PyQt5/Qt/plugins/platforms/../../lib/libQt5Qml.so.5',
   'BINARY'),
  ('libQt5WebSockets.so.5',
   '/home/izi/.local/lib/python3.6/site-packages/PyQt5/Qt/plugins/platforms/../../lib/libQt5WebSockets.so.5',
   'BINARY'),
  ('libcrypto.so.1.1', '/usr/lib/x86_64-linux-gnu/libcrypto.so.1.1', 'BINARY'),
  ('libssl.so.1.1', '/usr/lib/x86_64-linux-gnu/libssl.so.1.1', 'BINARY'),
  ('libtinfo.so.5', '/lib/x86_64-linux-gnu/libtinfo.so.5', 'BINARY'),
  ('libreadline.so.7', '/lib/x86_64-linux-gnu/libreadline.so.7', 'BINARY'),
  ('libbz2.so.1.0', '/lib/x86_64-linux-gnu/libbz2.so.1.0', 'BINARY'),
  ('libicuuc.so.60', '/usr/lib/x86_64-linux-gnu/libicuuc.so.60', 'BINARY'),
  ('libicui18n.so.60', '/usr/lib/x86_64-linux-gnu/libicui18n.so.60', 'BINARY'),
  ('libdouble-conversion.so.1',
   '/usr/lib/x86_64-linux-gnu/libdouble-conversion.so.1',
   'BINARY'),
  ('libicudata.so.60', '/usr/lib/x86_64-linux-gnu/libicudata.so.60', 'BINARY'),
  ('libpython3.6m.so.1.0',
   '/usr/lib/x86_64-linux-gnu/libpython3.6m.so.1.0',
   'BINARY'),
  ('base_library.zip',
   '/home/izi/Desktop/V3-linux/build/ProtonBrowser/base_library.zip',
   'DATA'),
  ('PyQt5/Qt/translations/qtbase_pl.qm',
   '/home/izi/.local/lib/python3.6/site-packages/PyQt5/Qt/translations/qtbase_pl.qm',
   'DATA'),
  ('PyQt5/uic/widget-plugins/__pycache__/qtprintsupport.cpython-36.pyc',
   '/home/izi/.local/lib/python3.6/site-packages/PyQt5/uic/widget-plugins/__pycache__/qtprintsupport.cpython-36.pyc',
   'DATA'),
  ('PyQt5/Qt/translations/qtbase_sk.qm',
   '/home/izi/.local/lib/python3.6/site-packages/PyQt5/Qt/translations/qtbase_sk.qm',
   'DATA'),
  ('PyQt5/Qt/translations/qtbase_zh_TW.qm',
   '/home/izi/.local/lib/python3.6/site-packages/PyQt5/Qt/translations/qtbase_zh_TW.qm',
   'DATA'),
  ('PyQt5/Qt/translations/qtbase_ru.qm',
   '/home/izi/.local/lib/python3.6/site-packages/PyQt5/Qt/translations/qtbase_ru.qm',
   'DATA'),
  ('PyQt5/uic/widget-plugins/qaxcontainer.py',
   '/home/izi/.local/lib/python3.6/site-packages/PyQt5/uic/widget-plugins/qaxcontainer.py',
   'DATA'),
  ('PyQt5/Qt/translations/qtbase_ja.qm',
   '/home/izi/.local/lib/python3.6/site-packages/PyQt5/Qt/translations/qtbase_ja.qm',
   'DATA'),
  ('PyQt5/uic/widget-plugins/qtquickwidgets.py',
   '/home/izi/.local/lib/python3.6/site-packages/PyQt5/uic/widget-plugins/qtquickwidgets.py',
   'DATA'),
  ('PyQt5/uic/widget-plugins/qtwebenginewidgets.py',
   '/home/izi/.local/lib/python3.6/site-packages/PyQt5/uic/widget-plugins/qtwebenginewidgets.py',
   'DATA'),
  ('PyQt5/Qt/translations/qtbase_hu.qm',
   '/home/izi/.local/lib/python3.6/site-packages/PyQt5/Qt/translations/qtbase_hu.qm',
   'DATA'),
  ('PyQt5/Qt/translations/qtbase_en.qm',
   '/home/izi/.local/lib/python3.6/site-packages/PyQt5/Qt/translations/qtbase_en.qm',
   'DATA'),
  ('PyQt5/uic/widget-plugins/qtcharts.py',
   '/home/izi/.local/lib/python3.6/site-packages/PyQt5/uic/widget-plugins/qtcharts.py',
   'DATA'),
  ('PyQt5/uic/widget-plugins/__pycache__/qaxcontainer.cpython-36.pyc',
   '/home/izi/.local/lib/python3.6/site-packages/PyQt5/uic/widget-plugins/__pycache__/qaxcontainer.cpython-36.pyc',
   'DATA'),
  ('PyQt5/uic/widget-plugins/__pycache__/qtquickwidgets.cpython-36.pyc',
   '/home/izi/.local/lib/python3.6/site-packages/PyQt5/uic/widget-plugins/__pycache__/qtquickwidgets.cpython-36.pyc',
   'DATA'),
  ('PyQt5/uic/widget-plugins/__pycache__/qtcharts.cpython-36.pyc',
   '/home/izi/.local/lib/python3.6/site-packages/PyQt5/uic/widget-plugins/__pycache__/qtcharts.cpython-36.pyc',
   'DATA'),
  ('PyQt5/Qt/translations/qtbase_ca.qm',
   '/home/izi/.local/lib/python3.6/site-packages/PyQt5/Qt/translations/qtbase_ca.qm',
   'DATA'),
  ('PyQt5/Qt/translations/qtbase_es.qm',
   '/home/izi/.local/lib/python3.6/site-packages/PyQt5/Qt/translations/qtbase_es.qm',
   'DATA'),
  ('PyQt5/Qt/translations/qtbase_da.qm',
   '/home/izi/.local/lib/python3.6/site-packages/PyQt5/Qt/translations/qtbase_da.qm',
   'DATA'),
  ('PyQt5/Qt/translations/qtbase_cs.qm',
   '/home/izi/.local/lib/python3.6/site-packages/PyQt5/Qt/translations/qtbase_cs.qm',
   'DATA'),
  ('PyQt5/Qt/translations/qtbase_lv.qm',
   '/home/izi/.local/lib/python3.6/site-packages/PyQt5/Qt/translations/qtbase_lv.qm',
   'DATA'),
  ('PyQt5/Qt/translations/qtbase_it.qm',
   '/home/izi/.local/lib/python3.6/site-packages/PyQt5/Qt/translations/qtbase_it.qm',
   'DATA'),
  ('PyQt5/Qt/translations/qtbase_fr.qm',
   '/home/izi/.local/lib/python3.6/site-packages/PyQt5/Qt/translations/qtbase_fr.qm',
   'DATA'),
  ('PyQt5/uic/widget-plugins/qtprintsupport.py',
   '/home/izi/.local/lib/python3.6/site-packages/PyQt5/uic/widget-plugins/qtprintsupport.py',
   'DATA'),
  ('PyQt5/uic/widget-plugins/__pycache__/qtwebenginewidgets.cpython-36.pyc',
   '/home/izi/.local/lib/python3.6/site-packages/PyQt5/uic/widget-plugins/__pycache__/qtwebenginewidgets.cpython-36.pyc',
   'DATA'),
  ('PyQt5/uic/widget-plugins/__pycache__/qscintilla.cpython-36.pyc',
   '/home/izi/.local/lib/python3.6/site-packages/PyQt5/uic/widget-plugins/__pycache__/qscintilla.cpython-36.pyc',
   'DATA'),
  ('PyQt5/Qt/translations/qtbase_uk.qm',
   '/home/izi/.local/lib/python3.6/site-packages/PyQt5/Qt/translations/qtbase_uk.qm',
   'DATA'),
  ('PyQt5/Qt/translations/qtbase_ar.qm',
   '/home/izi/.local/lib/python3.6/site-packages/PyQt5/Qt/translations/qtbase_ar.qm',
   'DATA'),
  ('PyQt5/Qt/translations/qtbase_he.qm',
   '/home/izi/.local/lib/python3.6/site-packages/PyQt5/Qt/translations/qtbase_he.qm',
   'DATA'),
  ('PyQt5/Qt/translations/qtbase_ko.qm',
   '/home/izi/.local/lib/python3.6/site-packages/PyQt5/Qt/translations/qtbase_ko.qm',
   'DATA'),
  ('PyQt5/Qt/translations/qtbase_gd.qm',
   '/home/izi/.local/lib/python3.6/site-packages/PyQt5/Qt/translations/qtbase_gd.qm',
   'DATA'),
  ('PyQt5/uic/widget-plugins/__pycache__/qtwebkit.cpython-36.pyc',
   '/home/izi/.local/lib/python3.6/site-packages/PyQt5/uic/widget-plugins/__pycache__/qtwebkit.cpython-36.pyc',
   'DATA'),
  ('PyQt5/Qt/translations/qtbase_bg.qm',
   '/home/izi/.local/lib/python3.6/site-packages/PyQt5/Qt/translations/qtbase_bg.qm',
   'DATA'),
  ('PyQt5/Qt/translations/qtbase_de.qm',
   '/home/izi/.local/lib/python3.6/site-packages/PyQt5/Qt/translations/qtbase_de.qm',
   'DATA'),
  ('PyQt5/uic/widget-plugins/qtwebkit.py',
   '/home/izi/.local/lib/python3.6/site-packages/PyQt5/uic/widget-plugins/qtwebkit.py',
   'DATA'),
  ('PyQt5/Qt/translations/qtbase_fi.qm',
   '/home/izi/.local/lib/python3.6/site-packages/PyQt5/Qt/translations/qtbase_fi.qm',
   'DATA'),
  ('PyQt5/uic/widget-plugins/qscintilla.py',
   '/home/izi/.local/lib/python3.6/site-packages/PyQt5/uic/widget-plugins/qscintilla.py',
   'DATA')],
 [],
 False,
 False,
 1577475779,
 [('run',
   '/home/izi/.local/lib/python3.6/site-packages/PyInstaller/bootloader/Linux-64bit/run',
   'EXECUTABLE')])
